<?xml version="1.0" encoding="UTF-8" standalone="no"?>
<!-- Created with Inkscape (http://www.inkscape.org/) -->
<svg
   xmlns:dc="http://purl.org/dc/elements/1.1/"
   xmlns:cc="http://creativecommons.org/ns#"
   xmlns:rdf="http://www.w3.org/1999/02/22-rdf-syntax-ns#"
   xmlns:svg="http://www.w3.org/2000/svg"
   xmlns="http://www.w3.org/2000/svg"
   xmlns:xlink="http://www.w3.org/1999/xlink"
   xmlns:sodipodi="http://sodipodi.sourceforge.net/DTD/sodipodi-0.dtd"
   xmlns:inkscape="http://www.inkscape.org/namespaces/inkscape"
   width="32"
   height="32"
   id="svg3710"
   sodipodi:version="0.32"
   inkscape:version="0.46"
   sodipodi:docname="google-chrome32c.svg"
   inkscape:output_extension="org.inkscape.output.svg.inkscape"
   version="1.0">
  <defs
     id="defs3712">
    <linearGradient
       id="linearGradient8838">
      <stop
         id="stop8840"
         style="stop-color:#000000;stop-opacity:1"
         offset="0" />
      <stop
         id="stop8842"
         style="stop-color:#000000;stop-opacity:0"
         offset="1" />
    </linearGradient>
    <linearGradient
       id="linearGradient3657">
      <stop
         id="stop3659"
         offset="0"
         style="stop-color:#fff3a5;stop-opacity:1;" />
      <stop
         id="stop3661"
         offset="1"
         style="stop-color:#fff3a5;stop-opacity:0;" />
    </linearGradient>
    <radialGradient
       gradientUnits="userSpaceOnUse"
       gradientTransform="matrix(1,0,0,-1,-256,-90)"
       r="125.9904"
       cy="-208.9785"
       cx="384.82709"
       id="SVGID_12_">
      <stop
         id="stop2533"
         style="stop-color:#FFE650"
         offset="0.182" />
      <stop
         id="stop2535"
         style="stop-color:#FFDB00"
         offset="0.703" />
      <stop
         id="stop2537"
         style="stop-color:#D5B319"
         offset="1" />
    </radialGradient>
    <linearGradient
       id="linearGradient3619">
      <stop
         style="stop-color:#70c4f8;stop-opacity:1;"
         offset="0"
         id="stop3621" />
      <stop
         style="stop-color:#70c4f8;stop-opacity:0;"
         offset="1"
         id="stop3623" />
    </linearGradient>
    <radialGradient
       gradientUnits="userSpaceOnUse"
       gradientTransform="matrix(1,0,0,-1,-256,-90)"
       r="52.106899"
       cy="-189.31149"
       cx="383.82419"
       id="SVGID_4_">
      <stop
         id="stop2451"
         style="stop-color:#B1DDF4"
         offset="0" />
      <stop
         id="stop2453"
         style="stop-color:#A9D7F3"
         offset="0.0742" />
      <stop
         id="stop2455"
         style="stop-color:#93C7F1"
         offset="0.1904" />
      <stop
         id="stop2457"
         style="stop-color:#6EADEE"
         offset="0.3332" />
      <stop
         id="stop2459"
         style="stop-color:#5B9FEC"
         offset="0.4" />
      <stop
         id="stop2461"
         style="stop-color:#0B85D1"
         offset="0.5273" />
      <stop
         id="stop2463"
         style="stop-color:#1375B3"
         offset="0.6182" />
      <stop
         id="stop2465"
         style="stop-color:#166FA8"
         offset="0.6537" />
      <stop
         id="stop2467"
         style="stop-color:#1E608B"
         offset="0.716" />
      <stop
         id="stop2469"
         style="stop-color:#2B475C"
         offset="0.7971" />
      <stop
         id="stop2471"
         style="stop-color:#33383F"
         offset="0.8424" />
      <stop
         id="stop2473"
         style="stop-color:#363233"
         offset="1" />
    </radialGradient>
    <linearGradient
       id="linearGradient3651">
      <stop
         id="stop3653"
         offset="0"
         style="stop-color:#ffa5a5;stop-opacity:1;" />
      <stop
         id="stop3655"
         offset="1"
         style="stop-color:#ffa5a5;stop-opacity:0;" />
    </linearGradient>
    <radialGradient
       gradientUnits="userSpaceOnUse"
       gradientTransform="matrix(1,0,0,-1,-256,-90)"
       r="116.2404"
       cy="-214.623"
       cx="386.72559"
       id="SVGID_3_">
      <stop
         id="stop2440"
         style="stop-color:#F60000"
         offset="0.6157" />
      <stop
         id="stop2442"
         style="stop-color:#E70505"
         offset="0.7247" />
      <stop
         id="stop2444"
         style="stop-color:#C41212"
         offset="0.9171" />
      <stop
         id="stop2446"
         style="stop-color:#DD7878"
         offset="1" />
    </radialGradient>
    <linearGradient
       id="linearGradient3663">
      <stop
         id="stop3665"
         offset="0"
         style="stop-color:#a9fbae;stop-opacity:1" />
      <stop
         id="stop3667"
         offset="1"
         style="stop-color:#a9fbae;stop-opacity:0" />
    </linearGradient>
    <radialGradient
       gradientUnits="userSpaceOnUse"
       gradientTransform="matrix(1,0,0,-1,-256,-90)"
       r="175.0517"
       cy="-188.47951"
       cx="351.82419"
       id="SVGID_2_">
      <stop
         id="stop2417"
         style="stop-color:#8DDB92"
         offset="0.0765" />
      <stop
         id="stop2419"
         style="stop-color:#77CE7C"
         offset="0.1633" />
      <stop
         id="stop2421"
         style="stop-color:#3EAB45"
         offset="0.3431" />
      <stop
         id="stop2423"
         style="stop-color:#078A0F"
         offset="0.5021" />
      <stop
         id="stop2425"
         style="stop-color:#108C18"
         offset="0.581" />
      <stop
         id="stop2427"
         style="stop-color:#28922F"
         offset="0.7085" />
      <stop
         id="stop2429"
         style="stop-color:#299230"
         offset="0.7148" />
    </radialGradient>
    <radialGradient
       inkscape:collect="always"
       xlink:href="#linearGradient8838"
       id="radialGradient2455"
       gradientUnits="userSpaceOnUse"
       gradientTransform="matrix(2.1647059,0,0,0.7529402,-111.56471,36.517647)"
       cx="62.625"
       cy="4.625"
       fx="62.625"
       fy="4.625"
       r="10.625" />
    <radialGradient
       inkscape:collect="always"
       xlink:href="#SVGID_2_"
       id="radialGradient2481"
       gradientUnits="userSpaceOnUse"
       gradientTransform="matrix(0.2307498,0,0,-0.2307498,-85.893611,-5.7318743)"
       cx="351.82419"
       cy="-188.47951"
       r="175.0517" />
    <linearGradient
       inkscape:collect="always"
       xlink:href="#linearGradient3663"
       id="linearGradient2483"
       gradientUnits="userSpaceOnUse"
       x1="-0.077440023"
       y1="21.17831"
       x2="-0.077440023"
       y2="65.703537" />
    <radialGradient
       inkscape:collect="always"
       xlink:href="#SVGID_3_"
       id="radialGradient2485"
       gradientUnits="userSpaceOnUse"
       gradientTransform="matrix(0.2307498,0,0,-0.2307498,-85.893611,-5.7318743)"
       cx="386.72559"
       cy="-214.623"
       r="116.2404" />
    <linearGradient
       inkscape:collect="always"
       xlink:href="#linearGradient3651"
       id="linearGradient2487"
       gradientUnits="userSpaceOnUse"
       x1="0.21323541"
       y1="16.963987"
       x2="0.48597974"
       y2="42.616383" />
    <radialGradient
       inkscape:collect="always"
       xlink:href="#SVGID_4_"
       id="radialGradient2489"
       gradientUnits="userSpaceOnUse"
       gradientTransform="matrix(0.872053,-5.6138842e-3,-5.2445694e-3,-0.8146842,-207.88373,-52.762839)"
       cx="383.82419"
       cy="-189.31149"
       r="52.106899"
       fx="383.82419"
       fy="-189.31149" />
    <linearGradient
       inkscape:collect="always"
       xlink:href="#linearGradient3619"
       id="linearGradient2491"
       gradientUnits="userSpaceOnUse"
       x1="121.98909"
       y1="64.683754"
       x2="123.27167"
       y2="207.21237" />
    <radialGradient
       inkscape:collect="always"
       xlink:href="#SVGID_12_"
       id="radialGradient2493"
       gradientUnits="userSpaceOnUse"
       gradientTransform="matrix(0.2307498,0,0,-0.2307498,-85.893611,-5.7318743)"
       cx="384.82709"
       cy="-208.9785"
       r="125.9904" />
    <linearGradient
       inkscape:collect="always"
       xlink:href="#linearGradient3657"
       id="linearGradient2495"
       gradientUnits="userSpaceOnUse"
       x1="1.6790867"
       y1="26.492022"
       x2="1.2189054"
       y2="70.284325" />
  </defs>
  <sodipodi:namedview
     id="base"
     pagecolor="#ffffff"
     bordercolor="#666666"
     borderopacity="1.0"
     inkscape:pageopacity="0.0"
     inkscape:pageshadow="2"
     inkscape:zoom="11.313708"
     inkscape:cx="0.89314842"
     inkscape:cy="24"
     inkscape:current-layer="layer1"
     showgrid="true"
     inkscape:grid-bbox="true"
     inkscape:document-units="px" />
  <metadata
     id="metadata3715">
    <rdf:RDF>
      <cc:Work
         rdf:about="">
        <dc:format>image/svg+xml</dc:format>
        <dc:type
           rdf:resource="http://purl.org/dc/dcmitype/StillImage" />
      </cc:Work>
    </rdf:RDF>
  </metadata>
  <g
     id="layer1"
     inkscape:label="Layer 1"
     inkscape:groupmode="layer">
    <g
       id="g3299"
       transform="matrix(0.6666667,0,0,0.6666667,3.9558827e-2,-7.8469501e-7)">
      <path
         d="M 47.000001,40 C 47.000001,44.418278 36.702548,48 24.000001,48 C 11.297453,48 0.9999995,44.418278 0.9999995,40 C 0.9999995,35.581722 11.297453,32 24.000001,32 C 36.702548,32 47.000001,35.581722 47.000001,40 L 47.000001,40 z"
         id="path8836"
         style="opacity:0.3;fill:url(#radialGradient2455);fill-opacity:1;fill-rule:evenodd;stroke:none;stroke-width:0.99999988;stroke-linecap:butt;stroke-linejoin:round;marker:none;marker-start:none;marker-mid:none;marker-end:none;stroke-miterlimit:4;stroke-dasharray:none;stroke-dashoffset:0;stroke-opacity:1;visibility:visible;display:inline;overflow:visible" />
      <path
         id="path3569"
         d="M 22.022081,2.2857558 C 10.737112,2.2857558 1.5696591,11.490133 1.5696591,22.836641 C 1.5696591,34.183148 10.737112,43.387524 22.022081,43.387524 C 22.280177,43.387524 22.531346,43.372133 22.787134,43.362583 C 12.082558,42.816425 3.5587973,33.909131 3.5587973,23.011222 C 3.5587973,11.761771 12.644265,2.6349213 23.832707,2.6349213 C 24.820301,2.6349213 25.789958,2.6969942 26.739909,2.8344444 C 25.222113,2.4726738 23.649386,2.2857558 22.022081,2.2857558 z"
         style="fill:#222b00;fill-opacity:1;fill-rule:nonzero;stroke:none;stroke-width:1;stroke-linecap:round;stroke-linejoin:round;marker:none;marker-start:none;marker-mid:none;marker-end:none;stroke-miterlimit:4;stroke-dasharray:none;stroke-dashoffset:0;stroke-opacity:1;visibility:visible;display:inline;overflow:visible;enable-background:new" />
      <path
         id="path3564"
         d="M 24.368244,1.5717062 C 24.002128,1.5717062 23.633357,1.5795605 23.271667,1.597208 C 34.741235,2.1698523 43.8771,11.515824 43.8771,22.942192 C 43.877101,34.368557 34.741236,43.714531 23.271667,44.287175 C 23.633357,44.304823 24.002128,44.312677 24.368244,44.312677 C 36.356256,44.312677 46.070252,34.737151 46.070253,22.942192 C 46.070253,11.147232 36.356256,1.5717062 24.368244,1.5717062 z"
         style="fill:#591f00;fill-opacity:1;fill-rule:nonzero;stroke:none;stroke-width:1;stroke-linecap:round;stroke-linejoin:round;marker:none;marker-start:none;marker-mid:none;marker-end:none;stroke-miterlimit:4;stroke-dasharray:none;stroke-dashoffset:0;stroke-opacity:1;visibility:visible;display:inline;overflow:visible;enable-background:new" />
      <path
         transform="matrix(0.957234,0,0,0.9611311,68.847861,-6.7673752)"
         d="M -25.857143,31.214285 A 21.357143,21.928572 0 1 1 -68.57143,31.214285 A 21.357143,21.928572 0 1 1 -25.857143,31.214285 z"
         sodipodi:ry="21.928572"
         sodipodi:rx="21.357143"
         sodipodi:cy="31.214285"
         sodipodi:cx="-47.214287"
         id="path2762"
         style="fill:#4e4a4a;fill-opacity:1;fill-rule:nonzero;stroke:none;stroke-width:1;stroke-linecap:round;stroke-linejoin:round;marker:none;marker-start:none;marker-mid:none;marker-end:none;stroke-miterlimit:4;stroke-dasharray:none;stroke-dashoffset:0;stroke-opacity:1;visibility:visible;display:inline;overflow:visible;enable-background:new"
         sodipodi:type="arc" />
      <path
         transform="matrix(0.8160567,0,0,0.8160567,20.624109,-13.430622)"
         d="M -13.09375,23.125 C -13.902734,23.155919 -14.933311,23.838973 -15.78125,24.5 C -16.629189,25.161027 -17.28125,25.8125 -17.28125,25.8125 C -25.100466,33.168354 -27.873016,45.408679 -22.46875,56.0625 C -17.066754,66.712757 -7.1283584,70.243247 -2.375,71.09375 C 0.00041685256,71.518546 1.6641328,71.420751 2.71875,71.21875 C 3.7733672,71.016749 4.25,70.71875 4.25,70.71875 C 4.2516602,70.708399 4.2516602,70.697851 4.25,70.6875 C 4.2626457,70.67958 4.2733304,70.668896 4.28125,70.65625 C 4.2829102,70.645899 4.2829102,70.635351 4.28125,70.625 C 4.2829102,70.614649 4.2829102,70.604101 4.28125,70.59375 C 4.2829102,70.583399 4.2829102,70.572851 4.28125,70.5625 C 4.2708995,70.56084 4.2603505,70.56084 4.25,70.5625 C 4.2516602,70.552149 4.2516602,70.541601 4.25,70.53125 C 4.2396495,70.52959 4.2291005,70.52959 4.21875,70.53125 C 4.2083995,70.52959 4.1978505,70.52959 4.1875,70.53125 C 4.1771495,70.52959 4.1666005,70.52959 4.15625,70.53125 C 3.749389,70.646551 3.059842,70.647701 2.46875,70.625 C 1.877658,70.602299 1.375,70.5625 1.375,70.5625 C -3.2205491,70.07726 -7.3280271,66.195695 -8.9375,64.5 C -9.7478591,63.64623 -10.675716,62.752941 -11.0625,61.78125 C -11.255892,61.295404 -11.302853,60.800054 -11.15625,60.25 C -11.009647,59.699946 -10.661942,59.092324 -10,58.4375 C -7.3380971,55.804219 -0.40625,51.3125 -0.40625,51.3125 C -0.4045898,51.302149 -0.4045898,51.291601 -0.40625,51.28125 C -0.39360428,51.27333 -0.38291958,51.262646 -0.375,51.25 C -0.3733398,51.239649 -0.3733398,51.229101 -0.375,51.21875 C -0.3733398,51.208399 -0.3733398,51.197851 -0.375,51.1875 C -0.3733398,51.177149 -0.3733398,51.166601 -0.375,51.15625 C -0.38535052,51.15459 -0.39589948,51.15459 -0.40625,51.15625 C -0.41416958,51.143604 -0.42485428,51.13292 -0.4375,51.125 C -5.5192442,49.880126 -9.28125,45.218213 -9.28125,39.75 C -9.2812501,38.797982 -9.1188028,37.955084 -9.03125,37.03125 C -9.0004568,36.705149 -9.1165122,36.249026 -9.4375,35.625 C -9.7584878,35.000974 -10.297407,34.22009 -11.09375,33.25 C -12.673523,31.325551 -14.144725,28.903957 -14.4375,26.625 C -14.600414,25.357492 -14.230954,24.510852 -13.84375,24 C -13.456546,23.489148 -13.0625,23.3125 -13.0625,23.3125 C -13.052149,23.31416 -13.041601,23.31416 -13.03125,23.3125 C -13.02959,23.302149 -13.02959,23.291601 -13.03125,23.28125 C -13.020899,23.28291 -13.010351,23.28291 -13,23.28125 C -12.99834,23.270899 -12.99834,23.260351 -13,23.25 C -12.99834,23.239649 -12.99834,23.229101 -13,23.21875 C -12.99834,23.208399 -12.99834,23.197851 -13,23.1875 C -13.00792,23.174854 -13.018604,23.16417 -13.03125,23.15625 C -13.02959,23.145899 -13.02959,23.135351 -13.03125,23.125 C -13.041601,23.12334 -13.052149,23.12334 -13.0625,23.125 C -13.072851,23.12334 -13.083399,23.12334 -13.09375,23.125 z"
         id="path3273"
         style="fill:#2d5016;stroke:none;stroke-width:1.2254051;stroke-miterlimit:4;stroke-dasharray:none;stroke-opacity:1"
         inkscape:original="M -13.09375 23.21875 C -14.603085 23.276437 -17.21875 25.875 -17.21875 25.875 C -25.006556 33.201306 -27.759315 45.416759 -22.375 56.03125 C -16.991145 66.645741 -7.0741209 70.15361 -2.34375 71 C 2.386621 71.845932 4.1875 70.625 4.1875 70.625 C 3.3219575 70.870287 1.375 70.65625 1.375 70.65625 C -3.2688397 70.165911 -7.3847514 66.26428 -9 64.5625 C -10.615249 62.860723 -12.744967 61.028622 -10.0625 58.375 C -7.3800337 55.721377 -0.46875 51.21875 -0.46875 51.21875 C -5.5948568 49.963009 -9.375 45.263305 -9.375 39.75 C -9.3750001 38.786851 -9.2119926 37.949173 -9.125 37.03125 C -9.0698511 36.44722 -9.5698451 35.24503 -11.15625 33.3125 C -12.742655 31.379972 -14.234275 28.936651 -14.53125 26.625 C -14.863069 24.043371 -13.09375 23.21875 -13.09375 23.21875 z "
         inkscape:radius="0.098649606"
         sodipodi:type="inkscape:offset" />
      <path
         transform="matrix(0.8160567,0,0,0.8160567,21.679628,-13.430622)"
         d="M -15.5625,25.90625 C -15.92773,26.228866 -16.4375,26.65625 -16.4375,26.65625 C -16.447708,26.666873 -16.458127,26.677292 -16.46875,26.6875 C -23.903529,33.681699 -26.535082,45.358806 -21.375,55.53125 C -17.294199,63.576717 -10.5826,67.297369 -5.6875,68.9375 C -7.5384541,67.639687 -8.9891678,66.179939 -9.8125,65.3125 C -10.589389,64.493993 -11.650861,63.598162 -12.1875,62.25 C -12.455819,61.575919 -12.529113,60.750235 -12.3125,59.9375 C -12.095887,59.124765 -11.611864,58.353604 -10.84375,57.59375 C -8.5733414,55.347754 -4.6983358,52.699265 -2.75,51.40625 C -7.266451,49.397572 -10.46875,44.987852 -10.46875,39.75 C -10.46875,38.661749 -10.299446,37.788983 -10.21875,36.9375 C -10.227352,37.028598 -10.235097,36.702492 -10.5,36.1875 C -10.764903,35.672508 -11.242093,34.954519 -12,34.03125 C -13.660942,32.007923 -15.280818,29.460361 -15.625,26.78125 C -15.667363,26.45166 -15.573863,26.20282 -15.5625,25.90625 z"
         id="path3675"
         style="fill:url(#radialGradient2481);stroke:url(#linearGradient2483);stroke-width:1.83810771;stroke-miterlimit:4;stroke-dasharray:none;stroke-opacity:1"
         inkscape:original="M -13.09375 23.21875 C -14.603085 23.276437 -17.21875 25.875 -17.21875 25.875 C -25.006556 33.201306 -27.759315 45.416759 -22.375 56.03125 C -16.991145 66.645741 -7.0741209 70.15361 -2.34375 71 C 2.386621 71.845932 4.1875 70.625 4.1875 70.625 C 3.3219575 70.870287 1.375 70.65625 1.375 70.65625 C -3.2688397 70.165911 -7.3847514 66.26428 -9 64.5625 C -10.615249 62.860723 -12.744967 61.028622 -10.0625 58.375 C -7.3800337 55.721377 -0.46875 51.21875 -0.46875 51.21875 C -5.5948568 49.963009 -9.375 45.263305 -9.375 39.75 C -9.3750001 38.786851 -9.2119926 37.949173 -9.125 37.03125 C -9.0698511 36.44722 -9.5698451 35.24503 -11.15625 33.3125 C -12.742655 31.379972 -14.234275 28.936651 -14.53125 26.625 C -14.863069 24.043371 -13.09375 23.21875 -13.09375 23.21875 z "
         inkscape:radius="-1.10877"
         sodipodi:type="inkscape:offset" />
      <path
         transform="matrix(0.8314696,0,0,0.8160567,21.86014,-14.611858)"
         d="M 3.25,17.90625 C -2.9497346,17.963655 -7.6748416,19.464606 -11.65625,21.90625 C -11.663963,21.998483 -11.859036,24.376361 -11.46875,25.9375 C -11.071096,27.528117 -9.1297678,31.758473 -8.21875,33.125 C -8.2085476,33.132762 -8.1907,33.119967 -8.1875,33.125 C -8.1768333,33.141776 -8.1740256,33.187696 -8.15625,33.21875 C -8.1206989,33.280858 -8.0772609,33.35967 -8.03125,33.46875 C -7.9606049,33.636231 -7.8970258,33.855441 -7.875,34.09375 C -7.602248,33.58202 -5.6190823,30.037295 -1.21875,28.6875 C 3.5036509,27.238912 8.5933626,27.938401 12.5625,32.71875 L 12.96875,33.125 C 12.96875,33.125 13.104949,33.310387 13.5,33.5 C 13.895051,33.689613 14.533447,33.901861 15.46875,33.9375 C 17.375023,34.010138 23.383288,34.867283 25.875,36.09375 L 27.03125,36.59375 C 27.03125,36.59375 27.225841,36.679728 27.375,36.65625 C 27.44958,36.644511 27.518839,36.616748 27.5625,36.53125 C 27.606161,36.445752 27.630836,36.277205 27.59375,36.03125 C 27.440387,35.014121 26.682644,30.430902 22.625,26.15625 C 17.605095,20.868026 9.4556955,17.84879 3.25,17.90625 z"
         id="path2501"
         style="fill:#800000;fill-opacity:1;stroke:none;stroke-width:1.2254051;stroke-miterlimit:4;stroke-dasharray:none;stroke-opacity:1"
         inkscape:original="M 3.25 17.84375 C -2.9802447 17.901437 -7.718933 19.413592 -11.71875 21.875 C -11.71875 21.875001 -11.935063 24.353502 -11.53125 25.96875 C -11.127438 27.583999 -9.2042492 31.771751 -8.28125 33.15625 C -8.281019 33.156249 -7.9109637 33.692245 -7.9375 34.3125 C -7.9374998 34.312499 -5.8890272 30.192186 -1.1875 28.75 C 3.5140272 27.307815 8.5484102 28.022035 12.5 32.78125 L 12.90625 33.1875 C 12.90625 33.1875 13.57937 33.928006 15.46875 34 C 17.358129 34.071994 23.382573 34.944813 25.84375 36.15625 L 27 36.65625 C 26.999999 36.656251 27.80993 37.050472 27.65625 36.03125 C 27.502571 35.012028 26.760465 30.384543 22.6875 26.09375 C 17.649539 20.786505 9.4802446 17.786063 3.25 17.84375 z "
         inkscape:radius="-0.074591622"
         sodipodi:type="inkscape:offset" />
      <path
         transform="matrix(0.8160567,0,0,0.8160567,21.679628,-13.430622)"
         d="M 3.25,19.21875 C -2.4342869,19.271382 -6.680641,20.572332 -10.34375,22.6875 C -10.371122,23.334561 -10.459108,24.663572 -10.21875,25.625 C -9.966202,26.635193 -8.439457,29.884494 -7.5625,31.5 C -6.3609231,30.043484 -4.5630478,28.348327 -1.59375,27.4375 C 3.4524738,25.88958 9.2061774,26.764528 13.46875,31.8125 C 13.499315,31.848697 13.532087,31.869621 13.5625,31.90625 L 13.875,32.21875 C 13.88595,32.239312 13.89637,32.260153 13.90625,32.28125 C 13.90625,32.28125 13.829596,32.231963 14.0625,32.34375 C 14.295404,32.455537 14.757843,32.59553 15.53125,32.625 C 17.632845,32.70508 22.83755,33.423793 25.9375,34.78125 C 25.561082,33.056527 24.696741,30.201429 21.6875,27.03125 C 16.978997,22.071073 9.0322978,19.165211 3.25,19.21875 z"
         id="path3687"
         style="fill:url(#radialGradient2485);stroke:url(#linearGradient2487);stroke-width:1.83810771;stroke-miterlimit:4;stroke-dasharray:none;stroke-opacity:1"
         inkscape:original="M 3.25 17.84375 C -2.9802447 17.901437 -7.718933 19.413592 -11.71875 21.875 C -11.71875 21.875001 -11.935063 24.353502 -11.53125 25.96875 C -11.127438 27.583999 -9.2042492 31.771751 -8.28125 33.15625 C -8.281019 33.156249 -7.9109637 33.692245 -7.9375 34.3125 C -7.9374998 34.312499 -5.8890272 30.192186 -1.1875 28.75 C 3.5140272 27.307815 8.5484102 28.022035 12.5 32.78125 L 12.90625 33.1875 C 12.90625 33.1875 13.57937 33.928006 15.46875 34 C 17.358129 34.071994 23.382573 34.944813 25.84375 36.15625 L 27 36.65625 C 26.999999 36.656251 27.80993 37.050472 27.65625 36.03125 C 27.502571 35.012028 26.760465 30.384543 22.6875 26.09375 C 17.649539 20.786505 9.4802446 17.786063 3.25 17.84375 z "
         inkscape:radius="-1.3610703"
         sodipodi:type="inkscape:offset" />
      <path
         transform="matrix(0.1883049,0,0,0.1883049,-0.208369,-1.1607134)"
         d="M 128.0625,75.78125 C 106.41446,75.78125 89.5625,91.726872 89.5625,110.78125 C 89.5625,129.83563 106.41446,145.78126 128.0625,145.78125 C 149.71054,145.78125 166.5625,129.83563 166.5625,110.78125 C 166.5625,91.726872 149.71054,75.78125 128.0625,75.78125 z"
         id="path3669"
         style="fill:url(#radialGradient2489);stroke:url(#linearGradient2491);stroke-width:7.96580315000000017;stroke-miterlimit:4;stroke-dasharray:none;stroke-opacity:1"
         inkscape:original="M 128.0625 68.03125 C 102.5325 68.03125 81.8125 87.18325 81.8125 110.78125 C 81.8125 134.37925 102.5325 153.53126 128.0625 153.53125 C 153.5925 153.53125 174.3125 134.37925 174.3125 110.78125 C 174.3125 87.18325 153.5925 68.03125 128.0625 68.03125 z "
         inkscape:radius="-7.7620945"
         sodipodi:type="inkscape:offset" />
      <path
         transform="matrix(0.812468,0,0,0.8017381,22.648163,-11.982678)"
         d="M 26.625,31.3125 C 26.444853,31.36987 26.299187,31.503784 26.226899,31.67848 C 26.154611,31.853175 26.163064,32.050862 26.25,32.21875 C 27.181218,34.141125 28.238891,36.804692 28.46875,39.25 C 28.568669,40.312964 28.549768,40.891535 28.5,41.15625 C 28.207373,41.019082 27.694569,40.70244 27.03125,40.3125 C 26.372831,39.92544 25.523963,39.445825 24.4375,39.09375 C 20.26802,37.742609 17.378606,37.105368 16.40625,36.78125 C 15.831387,36.589628 15.457432,36.388397 15.1875,36.21875 C 14.967484,36.078922 14.68473,36.086142 14.472136,36.237015 C 14.259542,36.387888 14.159389,36.652409 14.21875,36.90625 C 14.551231,38.10446 15.413797,41.961065 14.03125,44.78125 C 11.902957,49.121845 8.7820037,50.967441 3.0625,51.375 C 2.9274589,51.376157 2.7962271,51.419901 2.6875,51.5 L -7.21875,59.25 L -7.25,59.25 C -7.3136024,59.301925 -7.3666456,59.365577 -7.40625,59.4375 C -7.4177944,59.45775 -7.4282266,59.478614 -7.4375,59.5 C -7.6260655,59.637412 -7.9492939,59.830546 -8.3125,60.40625 C -8.5456688,60.775837 -8.7449111,61.226087 -8.75,61.71875 C -8.7550826,62.210797 -8.5267592,62.747946 -8.09375,63.21875 C -6.5480075,64.899913 -1.2884267,70.616803 5.125,71.15625 C 8.342135,71.426851 12.5109,70.333187 16.46875,68.25 C 20.427276,66.166457 24.140101,63.095342 26.5,59.4375 C 28.846454,55.800496 30.785576,50.824469 31.03125,45.4375 C 31.238556,40.891855 30.232891,36.058784 27.34375,31.59375 C 27.193664,31.350242 26.900493,31.235523 26.625,31.3125 z"
         id="path3277"
         style="fill:#aa8800;stroke:none;stroke-width:1.2254051;stroke-miterlimit:4;stroke-dasharray:none;stroke-opacity:1"
         inkscape:original="M 26.8125 31.9375 C 27.760896 33.895338 28.851055 36.605641 29.09375 39.1875 C 29.199904 40.316794 29.225543 40.989969 29.125 41.40625 C 29.074728 41.614391 28.971818 41.788007 28.78125 41.84375 C 28.590682 41.899493 28.405365 41.837476 28.21875 41.75 C 27.84552 41.575049 27.36613 41.25557 26.71875 40.875 C 26.07137 40.49443 25.269494 40.049123 24.25 39.71875 C 20.104388 38.375343 17.291469 37.732572 16.21875 37.375 C 15.600611 37.168953 15.160202 36.948884 14.84375 36.75 C 15.19085 38.000894 16.116284 41.956764 14.59375 45.0625 C 12.382823 49.571625 8.9414537 51.583306 3.09375 52 L -6.84375 59.75 C -6.8429832 59.760403 -6.8429832 59.770847 -6.84375 59.78125 C -6.84375 59.78125 -7.4137701 60.167522 -7.78125 60.75 C -7.9649899 61.041239 -8.0902466 61.379584 -8.09375 61.71875 C -8.0972534 62.057916 -7.9794706 62.39584 -7.625 62.78125 C -6.0886585 64.452188 -0.86738522 70.021961 5.1875 70.53125 C 8.2084079 70.785346 12.281408 69.726996 16.15625 67.6875 C 20.031092 65.648004 23.687991 62.628926 25.96875 59.09375 C 28.256333 55.547996 30.135456 50.658805 30.375 45.40625 C 30.577184 40.972916 29.623162 36.281249 26.8125 31.9375 z "
         inkscape:radius="0.64144725"
         sodipodi:type="inkscape:offset" />
      <path
         transform="matrix(0.8160567,0,0,0.8160567,21.679628,-13.430622)"
         d="M 15.3125,37.375 C 15.7124,38.873452 16.418362,42.134272 14.90625,45.21875 C 12.670248,49.779015 9.0808333,51.86745 3.25,52.3125 L -6.625,60.03125 C -6.6354146,60.031544 -6.6458354,60.031544 -6.65625,60.03125 C -6.65625,60.03125 -7.1462282,60.426283 -7.46875,60.9375 C -7.630011,61.193109 -7.7473719,61.464325 -7.75,61.71875 C -7.7526281,61.973175 -7.680954,62.229842 -7.375,62.5625 C -5.8416096,64.230228 -0.67827784,69.694117 5.1875,70.1875 C 8.1033517,70.43276 12.136838,69.391899 15.96875,67.375 C 19.800662,65.358101 23.449712,62.374821 25.6875,58.90625 C 27.943079,55.410103 29.794923,50.557006 30.03125,45.375 C 30.120817,43.411034 29.867457,41.412222 29.4375,39.40625 C 29.522199,40.332756 29.583159,41.026308 29.46875,41.5 C 29.404716,41.765121 29.209341,42.089702 28.875,42.1875 C 28.540659,42.285298 28.278103,42.163564 28.0625,42.0625 C 27.631295,41.860373 27.196873,41.529174 26.5625,41.15625 C 25.928127,40.783326 25.145402,40.38304 24.15625,40.0625 C 20.023308,38.723199 17.221665,38.094721 16.09375,37.71875 C 15.762581,37.60836 15.560583,37.493671 15.3125,37.375 z"
         id="path3681"
         style="fill:url(#radialGradient2493);stroke:url(#linearGradient2495);stroke-width:1.83810771;stroke-miterlimit:4;stroke-dasharray:none;stroke-opacity:1"
         inkscape:original="M 25.21875 29.4375 C 25.218749 29.437501 28.452035 34.719129 28.875 39.21875 C 29.297964 43.71837 28.465996 40.877214 24.3125 39.53125 C 20.159004 38.185288 17.319624 37.533624 16.28125 37.1875 C 15.242877 36.841375 14.644218 36.379912 14.5 36.25 C 14.5 36.250001 16.160872 41.389589 14.40625 44.96875 C 12.214127 49.439525 8.8768347 51.377437 3.03125 51.78125 L -6.96875 59.59375 C -6.9687502 59.593749 -9.3198897 61.264564 -7.78125 62.9375 C -6.2430721 64.610435 -1.0163071 70.230813 5.15625 70.75 C 11.328808 71.26919 21.541254 66.371993 26.15625 59.21875 C 30.771246 52.065506 33.641118 39.475117 25.21875 29.4375 z "
         inkscape:radius="-0.5540933"
         sodipodi:type="inkscape:offset" />
    </g>
  </g>
</svg>
