<?xml version="1.0" encoding="UTF-8" standalone="no"?>
<svg
   xmlns:x="adobe:ns:meta/"
   xmlns:dc="http://purl.org/dc/elements/1.1/"
   xmlns:cc="http://creativecommons.org/ns#"
   xmlns:rdf="http://www.w3.org/1999/02/22-rdf-syntax-ns#"
   xmlns:svg="http://www.w3.org/2000/svg"
   xmlns="http://www.w3.org/2000/svg"
   xmlns:sodipodi="http://sodipodi.sourceforge.net/DTD/sodipodi-0.dtd"
   xmlns:inkscape="http://www.inkscape.org/namespaces/inkscape"
   width="22"
   height="22"
   viewBox="0 0 22 22"
   version="1.1"
   id="svg531"
   sodipodi:docname="megalogging.svg"
   inkscape:version="1.0.2 (e86c870879, 2021-01-15)">
  <sodipodi:namedview
     pagecolor="#ffffff"
     bordercolor="#666666"
     borderopacity="1"
     objecttolerance="10"
     gridtolerance="10"
     guidetolerance="10"
     inkscape:pageopacity="0"
     inkscape:pageshadow="2"
     inkscape:window-width="1920"
     inkscape:window-height="959"
     id="namedview533"
     showgrid="false"
     inkscape:zoom="35.045455"
     inkscape:cx="11"
     inkscape:cy="11"
     inkscape:window-x="0"
     inkscape:window-y="27"
     inkscape:window-maximized="1"
     inkscape:current-layer="svg531" />
  <metadata
     id="metadata524">
<?xpacket begin="﻿" id="W5M0MpCehiHzreSzNTczkc9d"?>    <x:xmpmeta
       x:xmptk="Adobe XMP Core 5.6-c138 79.159824, 2016/09/14-01:09:01        ">
      <metadata>
        <rdf:RDF>
          <rdf:Description
             rdf:about="" />
          <cc:Work
             rdf:about="">
            <dc:format>image/svg+xml</dc:format>
            <dc:type
               rdf:resource="http://purl.org/dc/dcmitype/StillImage" />
            <dc:title></dc:title>
          </cc:Work>
        </rdf:RDF>
      </metadata>
    </x:xmpmeta>
<?xpacket end="w"?>  </metadata>
  <defs
     id="defs526" />
  <circle
     style="fill: #FFF; opacity: 0.5"
     cx="10"
     cy="11"
     r="10"
     id="circle528" />
  <path
     id="Shape_2_copy"
     data-name="Shape 2 copy"
     style="fill: #000; fill-rule: evenodd;"
     d="M15,14.45a0.3,0.3,0,0,1-.3 .3H13.444a0.3,0.3,0,0,1-.3-0.3V10.528a0.037,0.037,0,0,0-.063-0.027l-2.666,2.7a0.587,0.587,0,0,1-.838,0L6.915,10.5a0.037,0.037,0,0,0-.063 .027V14.45a0.3,0.3,0,0,1-.3 .3H5.3a0.3,0.3,0,0,1-.3-0.3V7.55a0.3,0.3,0,0,1,.3-0.3H6.162a0.589,0.589,0,0,1,.419 .176L9.9,10.781a0.147,0.147,0,0,0,.21,0l3.314-3.356a0.589,0.589,0,0,1,.419-0.176H14.7a0.3,0.3,0,0,1,.3 .3v6.9Z" />
</svg>
