<?xml version="1.0" encoding="UTF-8" standalone="no"?>
<!-- Created with Inkscape (http://www.inkscape.org/) -->

<svg
   version="1.0"
   width="32"
   height="32"
   id="svg2424"
   sodipodi:docname="text-x-makefile.svg"
   inkscape:version="1.2.1 (9c6d41e410, 2022-07-14)"
   xmlns:inkscape="http://www.inkscape.org/namespaces/inkscape"
   xmlns:sodipodi="http://sodipodi.sourceforge.net/DTD/sodipodi-0.dtd"
   xmlns:xlink="http://www.w3.org/1999/xlink"
   xmlns="http://www.w3.org/2000/svg"
   xmlns:svg="http://www.w3.org/2000/svg">
  <sodipodi:namedview
     id="namedview50"
     pagecolor="#ffffff"
     bordercolor="#000000"
     borderopacity="0.25"
     inkscape:showpageshadow="2"
     inkscape:pageopacity="0.0"
     inkscape:pagecheckerboard="0"
     inkscape:deskcolor="#d1d1d1"
     showgrid="false"
     inkscape:zoom="17.6875"
     inkscape:cx="16"
     inkscape:cy="16.028269"
     inkscape:window-width="1536"
     inkscape:window-height="772"
     inkscape:window-x="0"
     inkscape:window-y="0"
     inkscape:window-maximized="1"
     inkscape:current-layer="svg2424" />
  <defs
     id="defs2426">
    <linearGradient
       id="linearGradient5048">
      <stop
         id="stop5050"
         style="stop-color:#000000;stop-opacity:0"
         offset="0" />
      <stop
         id="stop5056"
         style="stop-color:#000000;stop-opacity:1"
         offset="0.5" />
      <stop
         id="stop5052"
         style="stop-color:#000000;stop-opacity:0"
         offset="1" />
    </linearGradient>
    <linearGradient
       id="linearGradient5060">
      <stop
         id="stop5062"
         style="stop-color:#000000;stop-opacity:1"
         offset="0" />
      <stop
         id="stop5064"
         style="stop-color:#000000;stop-opacity:0"
         offset="1" />
    </linearGradient>
    <linearGradient
       id="linearGradient3104">
      <stop
         id="stop3106"
         style="stop-color:#aaaaaa;stop-opacity:1"
         offset="0" />
      <stop
         id="stop3108"
         style="stop-color:#c8c8c8;stop-opacity:1"
         offset="1" />
    </linearGradient>
    <linearGradient
       id="linearGradient3600">
      <stop
         id="stop3602"
         style="stop-color:#f4f4f4;stop-opacity:1"
         offset="0" />
      <stop
         id="stop3604"
         style="stop-color:#dbdbdb;stop-opacity:1"
         offset="1" />
    </linearGradient>
    <radialGradient
       cx="102"
       cy="112.3047"
       r="139.55859"
       id="XMLID_8_"
       gradientUnits="userSpaceOnUse">
      <stop
         id="stop41"
         style="stop-color:#b7b8b9;stop-opacity:1"
         offset="0" />
      <stop
         id="stop47"
         style="stop-color:#ececec;stop-opacity:1"
         offset="0.18851049" />
      <stop
         id="stop49"
         style="stop-color:#fafafa;stop-opacity:0"
         offset="0.25718147" />
      <stop
         id="stop51"
         style="stop-color:#ffffff;stop-opacity:0"
         offset="0.30111277" />
      <stop
         id="stop53"
         style="stop-color:#fafafa;stop-opacity:0"
         offset="0.53130001" />
      <stop
         id="stop55"
         style="stop-color:#ebecec;stop-opacity:0"
         offset="0.84490001" />
      <stop
         id="stop57"
         style="stop-color:#e1e2e3;stop-opacity:0"
         offset="1" />
    </radialGradient>
    <linearGradient
       id="linearGradient3211">
      <stop
         id="stop3213"
         style="stop-color:#ffffff;stop-opacity:1"
         offset="0" />
      <stop
         id="stop3215"
         style="stop-color:#ffffff;stop-opacity:0"
         offset="1" />
    </linearGradient>
    <filter
       height="1.3286875"
       y="-0.16434373"
       width="1.2969251"
       x="-0.14846255"
       id="filter3212">
      <feGaussianBlur
         id="feGaussianBlur3214"
         stdDeviation="0.77391625"
         inkscape:collect="always" />
    </filter>
    <linearGradient
       id="linearGradient8589">
      <stop
         id="stop8591"
         style="stop-color:#fefefe;stop-opacity:1"
         offset="0" />
      <stop
         id="stop8593"
         style="stop-color:#cbcbcb;stop-opacity:1"
         offset="1" />
    </linearGradient>
    <linearGradient
       x1="32.892288"
       y1="8.0590115"
       x2="36.358372"
       y2="5.4565363"
       id="linearGradient2506"
       xlink:href="#linearGradient8589"
       gradientUnits="userSpaceOnUse"
       gradientTransform="matrix(0.6371285,0,0,0.6445638,0.8296804,0.7445175)" />
    <linearGradient
       x1="24"
       y1="1.9999999"
       x2="24"
       y2="46.01725"
       id="linearGradient2510"
       xlink:href="#linearGradient3211"
       gradientUnits="userSpaceOnUse"
       gradientTransform="matrix(0.6363646,0,0,0.6279076,0.7272514,0.9302159)" />
    <radialGradient
       cx="102"
       cy="112.3047"
       r="139.55859"
       id="radialGradient2513"
       xlink:href="#XMLID_8_"
       gradientUnits="userSpaceOnUse"
       gradientTransform="matrix(0.2340426,0,0,-0.2542968,1.0212767,32.288672)" />
    <linearGradient
       x1="25.132275"
       y1="0.98520643"
       x2="25.132275"
       y2="47.013336"
       id="linearGradient2516"
       xlink:href="#linearGradient3600"
       gradientUnits="userSpaceOnUse"
       gradientTransform="matrix(0.6571436,0,0,0.6301241,0.2285531,-8.9647831e-2)" />
    <linearGradient
       x1="-51.786404"
       y1="50.786446"
       x2="-51.786404"
       y2="2.9062471"
       id="linearGradient2518"
       xlink:href="#linearGradient3104"
       gradientUnits="userSpaceOnUse"
       gradientTransform="matrix(0.5306412,0,0,0.5897023,39.269605,-0.7919081)" />
    <radialGradient
       cx="605.71429"
       cy="486.64789"
       r="117.14286"
       fx="605.71429"
       fy="486.64789"
       id="radialGradient2521"
       xlink:href="#linearGradient5060"
       gradientUnits="userSpaceOnUse"
       gradientTransform="matrix(1.566318e-2,0,0,8.2352934e-3,17.610433,26.980566)" />
    <radialGradient
       cx="605.71429"
       cy="486.64789"
       r="117.14286"
       fx="605.71429"
       fy="486.64789"
       id="radialGradient2524"
       xlink:href="#linearGradient5060"
       gradientUnits="userSpaceOnUse"
       gradientTransform="matrix(-1.5663176e-2,0,0,8.2352934e-3,14.389566,26.980566)" />
    <linearGradient
       x1="302.85715"
       y1="366.64789"
       x2="302.85715"
       y2="609.50507"
       id="linearGradient2527"
       xlink:href="#linearGradient5048"
       gradientUnits="userSpaceOnUse"
       gradientTransform="matrix(4.5769278e-2,0,0,8.2352934e-3,-0.5423243,26.980549)" />
    <linearGradient
       inkscape:collect="always"
       xlink:href="#linearGradient3211"
       id="linearGradient3698"
       x1="16.116789"
       y1="21.119221"
       x2="16.116789"
       y2="10.997566"
       gradientUnits="userSpaceOnUse"
       gradientTransform="matrix(0.63513042,0,0,0.63513047,5.7637373,6.800826)" />
    <linearGradient
       inkscape:collect="always"
       xlink:href="#linearGradient3211"
       id="linearGradient3688"
       gradientUnits="userSpaceOnUse"
       x1="15.321168"
       y1="3"
       x2="15.321168"
       y2="29.045145"
       gradientTransform="matrix(0.64285709,0,0,0.64285714,5.7142867,6.714287)" />
    <linearGradient
       inkscape:collect="always"
       xlink:href="#linearGradient5128"
       id="linearGradient2836"
       gradientUnits="userSpaceOnUse"
       gradientTransform="matrix(0.13133718,0,0,0.13133727,7.5944162,8.725755)"
       x1="86.132919"
       y1="105.105"
       x2="84.63858"
       y2="20.895" />
    <linearGradient
       id="linearGradient5128">
      <stop
         id="stop5130"
         style="stop-color:#ffffff;stop-opacity:1"
         offset="0" />
      <stop
         id="stop5132"
         style="stop-color:#959595;stop-opacity:1"
         offset="1" />
    </linearGradient>
    <linearGradient
       inkscape:collect="always"
       xlink:href="#linearGradient3309"
       id="linearGradient2840"
       gradientUnits="userSpaceOnUse"
       gradientTransform="matrix(0.64285709,0,0,0.64285714,-3.9285696,-4.2142871)"
       x1="32.036148"
       y1="19"
       x2="32.036148"
       y2="47.012184" />
    <linearGradient
       x1="63.9995"
       y1="3.1001"
       x2="63.9995"
       y2="122.8994"
       id="linearGradient3309"
       gradientUnits="userSpaceOnUse">
      <stop
         id="stop3311"
         style="stop-color:#f6f6f6;stop-opacity:1"
         offset="0" />
      <stop
         id="stop3313"
         style="stop-color:#d2d2d2;stop-opacity:1"
         offset="1" />
    </linearGradient>
    <linearGradient
       inkscape:collect="always"
       xlink:href="#linearGradient3397"
       id="linearGradient2842"
       gradientUnits="userSpaceOnUse"
       gradientTransform="matrix(0.64285709,0,0,0.64285714,-3.9285696,-4.2142871)"
       x1="25.922546"
       y1="19"
       x2="25.922546"
       y2="47.044857" />
    <linearGradient
       id="linearGradient3397">
      <stop
         id="stop3399"
         style="stop-color:#aaaaaa;stop-opacity:1"
         offset="0" />
      <stop
         id="stop3401"
         style="stop-color:#8c8c8c;stop-opacity:1"
         offset="1" />
    </linearGradient>
  </defs>
  <g
     id="layer1">
    <rect
       width="22.100021"
       height="2"
       x="4.9499893"
       y="30"
       id="rect2879"
       style="opacity:0.15;fill:url(#linearGradient2527);fill-opacity:1;fill-rule:nonzero;stroke:none;stroke-width:1;stroke-linecap:round;stroke-linejoin:miter;marker:none;marker-start:none;marker-mid:none;marker-end:none;stroke-miterlimit:4;stroke-dasharray:none;stroke-dashoffset:0;stroke-opacity:1;visibility:visible;display:inline;overflow:visible" />
    <path
       d="M 4.9499887,30.000087 C 4.9499887,30.000087 4.9499887,31.999977 4.9499887,31.999977 C 4.1433737,32.003743 2.9999867,31.551903 2.9999867,30.999903 C 2.9999867,30.447903 3.9001077,30.000087 4.9499887,30.000087 z"
       id="path2881"
       style="opacity:0.15;fill:url(#radialGradient2524);fill-opacity:1;fill-rule:nonzero;stroke:none;stroke-width:1;stroke-linecap:round;stroke-linejoin:miter;marker:none;marker-start:none;marker-mid:none;marker-end:none;stroke-miterlimit:4;stroke-dasharray:none;stroke-dashoffset:0;stroke-opacity:1;visibility:visible;display:inline;overflow:visible" />
    <path
       d="M 27.050011,30.000087 C 27.050011,30.000087 27.050011,31.999977 27.050011,31.999977 C 27.856625,32.003743 29.000013,31.551903 29.000013,30.999903 C 29.000013,30.447903 28.099891,30.000087 27.050011,30.000087 z"
       id="path2883"
       style="opacity:0.15;fill:url(#radialGradient2521);fill-opacity:1;fill-rule:nonzero;stroke:none;stroke-width:1;stroke-linecap:round;stroke-linejoin:miter;marker:none;marker-start:none;marker-mid:none;marker-end:none;stroke-miterlimit:4;stroke-dasharray:none;stroke-dashoffset:0;stroke-opacity:1;visibility:visible;display:inline;overflow:visible" />
    <path
       d="M 4.499961,1.4999609 C 9.7704453,1.4999609 15.04093,1.4999609 20.311419,1.4999609 C 21.235975,1.8127611 26.20301,5.3763851 27.50004,7.8438467 C 27.50004,15.395911 27.50004,22.947975 27.50004,30.50004 C 19.833346,30.50004 12.166654,30.50004 4.499961,30.50004 C 4.499961,20.833346 4.499961,11.166652 4.499961,1.4999609 z"
       id="path4160"
       style="fill:url(#linearGradient2516);fill-opacity:1;stroke:url(#linearGradient2518);stroke-width:0.99992174;stroke-linecap:butt;stroke-linejoin:round;stroke-miterlimit:4;stroke-dasharray:none;stroke-dashoffset:0;stroke-opacity:1;display:inline" />
    <path
       d="M 5.2340427,30 C 5.1050853,30 5,29.885821 5,29.745703 L 5,2.2816602 C 5,2.141289 5.1050853,2.0273644 5.2340427,2.0273644 C 10.076044,2.0976535 15.441839,1.9222203 20.277954,2.0448649 L 26.931426,7.8143805 L 27,29.745703 C 27,29.885821 26.895148,30 26.765957,30 L 5.2340427,30 z"
       id="path4191"
       style="fill:url(#radialGradient2513);fill-opacity:1" />
    <path
       d="M 26.50004,8.1389757 C 26.50004,15.170208 26.50004,22.468805 26.50004,29.50004 C 19.500015,29.50004 12.499989,29.50004 5.4999611,29.50004 C 5.4999611,20.500011 5.4999611,11.499986 5.4999611,2.4999608 C 10.312145,2.4999608 15.239097,2.4999608 20.051281,2.4999608"
       id="path2435"
       style="opacity:0.6;fill:none;fill-opacity:1;stroke:url(#linearGradient2510);stroke-width:1;stroke-linecap:butt;stroke-linejoin:miter;stroke-miterlimit:4;stroke-dasharray:none;stroke-dashoffset:0;stroke-opacity:1;display:inline" />
    <path
       d="M 28.617256,0.92125832 C 32.899778,0.92125832 30.770506,9.4044296 30.770506,9.4044296 C 30.770506,9.4044296 41.128148,7.6020829 41.128148,12.223174 C 41.128148,9.6134507 29.825844,1.4945784 28.617256,0.92125832 z"
       transform="matrix(0.6385981,0,0,0.6193639,0.7250758,1.4294058)"
       id="path12038"
       style="opacity:0.4;fill:#000000;fill-opacity:1;fill-rule:evenodd;stroke:none;stroke-width:1px;stroke-linecap:butt;stroke-linejoin:miter;stroke-opacity:1;display:inline;filter:url(#filter3212)" />
    <path
       d="M 19.000002,2.0000004 C 21.03489,2.0000004 20.491614,6.7454911 20.491614,6.7454911 C 20.491614,6.7454911 26.989432,6.1378635 26.989432,9 C 26.989432,8.3026345 27.044298,7.803237 26.904003,7.5856242 C 25.896098,6.0222381 21.542643,2.5140243 19.970553,2.0542158 C 19.85291,2.0198078 19.592053,2.0000004 19.000002,2.0000004 z"
       id="path4474"
       style="fill:url(#linearGradient2506);fill-opacity:1;fill-rule:evenodd;stroke:none;stroke-width:1px;stroke-linecap:butt;stroke-linejoin:miter;stroke-opacity:1;display:inline" />
  </g>
  <path
     style="display:block;overflow:visible;visibility:visible;fill:url(#linearGradient2840);fill-opacity:1;fill-rule:nonzero;stroke:url(#linearGradient2842);stroke-width:0.642859;stroke-linecap:butt;stroke-linejoin:round;stroke-miterlimit:4;stroke-dasharray:none;stroke-dashoffset:0;stroke-opacity:1;marker:none;enable-background:accumulate"
     id="rect2576"
     d="m 14.633931,8.32143 c -0.481334,0 -0.883929,0.382508 -0.883929,0.863839 v 1.124999 c -0.304332,0.102135 -0.599627,0.220761 -0.88393,0.361608 L 12.082591,9.888393 c -0.340356,-0.340353 -0.885093,-0.340353 -1.225449,0 l -1.9687481,1.948662 c -0.3403538,0.340353 -0.3403518,0.885094 0,1.225446 l 0.7834816,0.783482 C 9.5276657,14.135225 9.4143268,14.439939 9.3102688,14.750001 H 8.2053581 c -0.4813321,0 -0.8839299,0.382508 -0.8839286,0.86384 v 2.77232 c -5e-7,0.481331 0.4025984,0.863842 0.8839286,0.86384 h 1.1049107 c 0.104058,0.310059 0.2173969,0.614777 0.3616067,0.904019 l -0.7834816,0.783481 c -0.3403538,0.340353 -0.3403545,0.885092 0,1.225449 l 1.9687481,1.94866 c 0.340355,0.34035 0.885093,0.340348 1.225449,0 l 0.783481,-0.783484 c 0.284303,0.140848 0.579598,0.25947 0.88393,0.361606 v 1.125 c -1e-6,0.481334 0.402597,0.863841 0.883929,0.863839 h 2.752231 c 0.48133,0 0.86384,-0.382505 0.86384,-0.863839 v -1.125 c 0.310058,-0.104058 0.614776,-0.217395 0.904018,-0.361606 l 0.78348,0.783484 c 0.340353,0.34035 0.885092,0.34035 1.225449,0 l 1.96875,-1.94866 c 0.34035,-0.340357 0.340346,-0.885096 0,-1.225449 l -0.803574,-0.80357 c 0.140848,-0.284305 0.25947,-0.579599 0.361606,-0.88393 h 1.125 c 0.481334,0 0.863839,-0.382509 0.863839,-0.86384 v -2.77232 c 1e-6,-0.481332 -0.382507,-0.86384 -0.863839,-0.86384 h -1.125 c -0.102136,-0.30433 -0.220758,-0.599626 -0.361606,-0.883929 l 0.803574,-0.803571 c 0.34035,-0.340353 0.340349,-0.885093 0,-1.225446 l -1.96875,-1.948662 c -0.340356,-0.340353 -0.885096,-0.340353 -1.225449,0 l -0.78348,0.783483 c -0.289242,-0.144211 -0.59396,-0.25755 -0.904018,-0.361608 V 9.185269 c 1e-6,-0.481331 -0.38251,-0.863839 -0.86384,-0.863839 z m 1.366071,6.428571 c 1.242,0 2.25,1.008 2.25,2.25 0,1.242 -1.008,2.25 -2.25,2.25 -1.242001,0 -2.25,-1.008 -2.25,-2.25 -1e-6,-1.242 1.008,-2.25 2.25,-2.25 z" />
  <path
     style="opacity:0.05;fill:#000000;fill-opacity:1;stroke:none;stroke-width:0.642859"
     d="m 16.000001,11.857144 c -2.83582,0 -5.142859,2.307039 -5.142859,5.142857 0,2.835819 2.307039,5.142859 5.142859,5.142859 2.835818,0 5.142858,-2.30704 5.142858,-5.142859 0,-2.835818 -2.30704,-5.142857 -5.142858,-5.142857 z m 0,3.214286 c 1.065122,0 1.92857,0.863449 1.92857,1.928571 0,1.065123 -0.863448,1.92857 -1.92857,1.92857 -1.065123,0 -1.92857,-0.863447 -1.92857,-1.92857 0,-1.065122 0.863447,-1.928571 1.92857,-1.928571 z"
     id="path3315" />
  <path
     style="fill:none;stroke:url(#linearGradient2836);stroke-width:0.642859;stroke-miterlimit:4;stroke-dasharray:none"
     id="path28"
     d="m 16,11.535715 c -3.013011,0 -5.464286,2.451279 -5.464286,5.464285 0,3.01301 2.451275,5.464288 5.464286,5.464288 3.013011,0 5.464287,-2.451278 5.464287,-5.464288 0,-3.013006 -2.451276,-5.464285 -5.464287,-5.464285 z" />
  <path
     style="display:block;overflow:visible;visibility:visible;opacity:0.8;fill:none;stroke:url(#linearGradient3688);stroke-width:0.642859;stroke-linecap:butt;stroke-linejoin:round;stroke-miterlimit:4;stroke-dasharray:none;stroke-dashoffset:0;stroke-opacity:1;marker:none;enable-background:accumulate"
     d="m 14.633931,8.964287 c -0.411277,0.08974 -0.180917,0.623414 -0.241071,0.930109 0.02979,0.383638 0.0077,0.891727 -0.441968,1.018551 -0.491938,0.10326 -1.058144,0.654567 -1.526782,0.200894 -0.325033,-0.274013 -0.570651,-0.680701 -0.954245,-0.85819 -0.347597,0.176914 -0.598647,0.563075 -0.909947,0.826444 -0.420474,0.435859 -0.8851572,0.836516 -1.2776407,1.294664 -0.024472,0.346297 0.3958029,0.519797 0.5829371,0.778635 0.3219036,0.244125 0.5896976,0.680064 0.3238576,1.06641 -0.2184626,0.424116 -0.2497525,1.16915 -0.8788032,1.171055 -0.4231466,0.034 -0.8796472,-0.07314 -1.279161,0.06343 -0.1428596,0.398964 -0.03161,0.865122 -0.066821,1.292151 0.01143,0.574506 -0.02304,1.153566 0.017523,1.725181 0.2424311,0.25136 0.6581778,0.08554 0.9799483,0.133517 0.4106436,-0.06022 0.9148863,0.07846 0.9885433,0.552467 0.1126276,0.45814 0.5973706,1.001725 0.1635366,1.436371 -0.2702278,0.32175 -0.6748993,0.565068 -0.8496581,0.943254 0.1833835,0.385853 0.5929699,0.633276 0.8725641,0.959819 0.414562,0.405861 0.833993,0.833491 1.243738,1.22662 0.354407,0.02646 0.53193,-0.398963 0.794996,-0.590886 0.244351,-0.322593 0.681493,-0.589975 1.067917,-0.323019 0.417486,0.219816 1.149279,0.257484 1.149462,0.877962 0.03584,0.423666 -0.07697,0.887031 0.06683,1.282549 0.456959,0.135693 0.970189,0.02996 1.450677,0.06344 0.523228,-0.0096 1.04934,0.01917 1.570761,-0.01438 0.242794,-0.233226 0.07714,-0.648342 0.126024,-0.963 -0.03541,-0.371547 0.01501,-0.851676 0.441965,-0.971278 0.499867,-0.09563 1.072785,-0.65657 1.546873,-0.200891 0.325033,0.274012 0.570648,0.680697 0.954243,0.858189 0.347598,-0.176916 0.598646,-0.563074 0.909949,-0.826446 0.420472,-0.435857 0.885156,-0.836514 1.277639,-1.294662 0.02447,-0.346298 -0.395802,-0.519796 -0.582937,-0.778634 -0.325707,-0.250565 -0.618797,-0.689146 -0.343105,-1.088004 0.219816,-0.417487 0.257484,-1.14928 0.877962,-1.149462 0.426865,-0.03032 0.883474,0.06525 1.289206,-0.05679 0.123105,-0.471796 0.02564,-0.994932 0.05679,-1.487909 -0.0092,-0.514191 0.01867,-1.031179 -0.01439,-1.543573 -0.233242,-0.242798 -0.648356,-0.07715 -0.963015,-0.126028 -0.413318,0.05776 -0.929305,-0.06473 -1.006997,-0.546754 -0.121082,-0.451553 -0.596696,-0.991265 -0.165168,-1.421996 0.280231,-0.297124 0.597512,-0.563776 0.854752,-0.879809 0.01656,-0.349138 -0.398263,-0.519424 -0.58878,-0.777289 -0.503848,-0.494666 -1.013624,-1.010684 -1.512535,-1.49267 -0.354407,-0.02646 -0.531928,0.398961 -0.794995,0.590886 -0.244126,0.321903 -0.680063,0.589696 -1.066406,0.323859 -0.424116,-0.218464 -1.169152,-0.249755 -1.171058,-0.878806 -0.03033,-0.426864 0.06524,-0.883473 -0.05677,-1.289203 -0.471796,-0.123109 -0.994932,-0.02566 -1.487909,-0.05678 -0.476177,0 -0.952351,0 -1.428526,0 z"
     id="path2901"
     sodipodi:nodetypes="ccccccccccccccccccccccccccccccccccccccccccccccccc" />
  <ellipse
     style="color:#000000;display:inline;overflow:visible;visibility:visible;opacity:0.4;fill:none;stroke:url(#linearGradient3698);stroke-width:0.642859;stroke-linecap:butt;stroke-linejoin:miter;stroke-miterlimit:4;stroke-dasharray:none;stroke-dashoffset:0;stroke-opacity:1;marker:none;enable-background:accumulate"
     id="path3690"
     cx="15.999999"
     cy="17"
     rx="2.8928568"
     ry="2.8928571" />
</svg>
