<?xml version="1.0" encoding="UTF-8" standalone="no"?>
<!-- Created with Inkscape (http://www.inkscape.org/) -->

<svg
   version="1.0"
   width="128"
   height="128"
   id="svg4486"
   sodipodi:version="0.32"
   inkscape:version="1.2.1 (9c6d41e410, 2022-07-14)"
   sodipodi:docname="text-org.svg"
   inkscape:output_extension="org.inkscape.output.svg.inkscape"
   xmlns:inkscape="http://www.inkscape.org/namespaces/inkscape"
   xmlns:sodipodi="http://sodipodi.sourceforge.net/DTD/sodipodi-0.dtd"
   xmlns:xlink="http://www.w3.org/1999/xlink"
   xmlns="http://www.w3.org/2000/svg"
   xmlns:svg="http://www.w3.org/2000/svg"
   xmlns:rdf="http://www.w3.org/1999/02/22-rdf-syntax-ns#"
   xmlns:cc="http://creativecommons.org/ns#"
   xmlns:dc="http://purl.org/dc/elements/1.1/">
  <metadata
     id="metadata51">
    <rdf:RDF>
      <cc:Work
         rdf:about="">
        <dc:format>image/svg+xml</dc:format>
        <dc:type
           rdf:resource="http://purl.org/dc/dcmitype/StillImage" />
      </cc:Work>
    </rdf:RDF>
  </metadata>
  <sodipodi:namedview
     inkscape:window-height="781"
     inkscape:window-width="1440"
     inkscape:pageshadow="2"
     inkscape:pageopacity="0.0"
     guidetolerance="10.0"
     gridtolerance="10.0"
     objecttolerance="10.0"
     borderopacity="1.0"
     bordercolor="#666666"
     pagecolor="#ffffff"
     id="base"
     showgrid="false"
     inkscape:zoom="2.8284271"
     inkscape:cx="46.138718"
     inkscape:cy="56.214989"
     inkscape:window-x="26"
     inkscape:window-y="23"
     inkscape:current-layer="svg4486"
     inkscape:showpageshadow="2"
     inkscape:pagecheckerboard="0"
     inkscape:deskcolor="#d1d1d1"
     inkscape:window-maximized="0" />
  <defs
     id="defs4488">
    <linearGradient
       id="linearGradient5048">
      <stop
         id="stop5050"
         style="stop-color:#000000;stop-opacity:0"
         offset="0" />
      <stop
         id="stop5056"
         style="stop-color:#000000;stop-opacity:1"
         offset="0.5" />
      <stop
         id="stop5052"
         style="stop-color:#000000;stop-opacity:0"
         offset="1" />
    </linearGradient>
    <linearGradient
       id="linearGradient5060">
      <stop
         id="stop5062"
         style="stop-color:#000000;stop-opacity:1"
         offset="0" />
      <stop
         id="stop5064"
         style="stop-color:#000000;stop-opacity:0"
         offset="1" />
    </linearGradient>
    <linearGradient
       id="linearGradient3104">
      <stop
         id="stop3106"
         style="stop-color:#aaaaaa;stop-opacity:1"
         offset="0" />
      <stop
         id="stop3108"
         style="stop-color:#c8c8c8;stop-opacity:1"
         offset="1" />
    </linearGradient>
    <linearGradient
       id="linearGradient3600">
      <stop
         id="stop3602"
         style="stop-color:#4dbc87;stop-opacity:1;"
         offset="0" />
      <stop
         id="stop3604"
         style="stop-color:#2e7651;stop-opacity:1;"
         offset="1" />
    </linearGradient>
    <radialGradient
       cx="102"
       cy="112.3047"
       r="139.55859"
       id="XMLID_8_"
       gradientUnits="userSpaceOnUse">
      <stop
         id="stop41"
         style="stop-color:#2d7652;stop-opacity:1;"
         offset="0" />
      <stop
         id="stop47"
         style="stop-color:#3b9a6a;stop-opacity:1;"
         offset="0.18851049" />
      <stop
         id="stop49"
         style="stop-color:#3b9a6a;stop-opacity:0;"
         offset="0.25718147" />
      <stop
         id="stop51"
         style="stop-color:#3b9a6a;stop-opacity:0;"
         offset="0.30111277" />
      <stop
         id="stop53"
         style="stop-color:#3b9a6a;stop-opacity:0;"
         offset="0.53130001" />
      <stop
         id="stop55"
         style="stop-color:#3b9a6a;stop-opacity:0;"
         offset="0.84490001" />
      <stop
         id="stop57"
         style="stop-color:#3b9a6a;stop-opacity:0;"
         offset="1" />
    </radialGradient>
    <linearGradient
       id="linearGradient3211">
      <stop
         id="stop3213"
         style="stop-color:#ffffff;stop-opacity:1"
         offset="0" />
      <stop
         id="stop3215"
         style="stop-color:#ffffff;stop-opacity:0"
         offset="1" />
    </linearGradient>
    <linearGradient
       id="linearGradient8589">
      <stop
         id="stop8591"
         style="stop-color:#fefefe;stop-opacity:1"
         offset="0" />
      <stop
         id="stop8593"
         style="stop-color:#cbcbcb;stop-opacity:1"
         offset="1" />
    </linearGradient>
    <linearGradient
       x1="32.892288"
       y1="8.0590115"
       x2="36.358372"
       y2="5.4565363"
       id="linearGradient2455"
       xlink:href="#linearGradient8589"
       gradientUnits="userSpaceOnUse"
       gradientTransform="matrix(2.6605294,0,0,2.7751643,0.7455334,-3.5662351)" />
    <linearGradient
       x1="24"
       y1="1.9999999"
       x2="24"
       y2="46.01725"
       id="linearGradient2459"
       xlink:href="#linearGradient3211"
       gradientUnits="userSpaceOnUse"
       gradientTransform="matrix(2.7575715,0,0,2.6744155,-2.1817183,-4.1859717)" />
    <radialGradient
       cx="102"
       cy="112.3047"
       r="139.55859"
       id="radialGradient2462"
       xlink:href="#XMLID_8_"
       gradientUnits="userSpaceOnUse"
       gradientTransform="matrix(0.9787237,0,0,-1.0535153,1.3617012,127.48164)" />
    <linearGradient
       x1="25.132275"
       y1="0.98520643"
       x2="25.132275"
       y2="47.013336"
       id="linearGradient2465"
       xlink:href="#linearGradient3600"
       gradientUnits="userSpaceOnUse"
       gradientTransform="matrix(2.657139,0,0,2.5422197,0.2286615,-4.9132741)" />
    <linearGradient
       x1="-51.786404"
       y1="50.786446"
       x2="-51.786404"
       y2="2.9062471"
       id="linearGradient2467"
       xlink:href="#linearGradient3104"
       gradientUnits="userSpaceOnUse"
       gradientTransform="matrix(2.1456312,0,0,2.3791388,158.0899,-7.7465258)" />
    <linearGradient
       x1="302.85715"
       y1="366.64789"
       x2="302.85715"
       y2="609.50507"
       id="linearGradient2483"
       xlink:href="#linearGradient5048"
       gradientUnits="userSpaceOnUse"
       gradientTransform="matrix(0.1725148,0,0,0.03920058,0.6482238,98.773724)" />
    <radialGradient
       cx="605.71429"
       cy="486.64789"
       r="117.14286"
       fx="605.71429"
       fy="486.64789"
       id="radialGradient2485"
       xlink:href="#linearGradient5060"
       gradientUnits="userSpaceOnUse"
       gradientTransform="matrix(-0.05903807,0,0,0.03920058,56.929907,98.773804)" />
    <radialGradient
       cx="605.71429"
       cy="486.64789"
       r="117.14286"
       fx="605.71429"
       fy="486.64789"
       id="radialGradient2487"
       xlink:href="#linearGradient5060"
       gradientUnits="userSpaceOnUse"
       gradientTransform="matrix(0.05903808,0,0,0.03920058,69.07008,98.773804)" />
  </defs>
  <g
     transform="matrix(1.0408163,0,0,0.6302428,-1.5714269,43.690218)"
     id="g2478">
    <rect
       width="83.299995"
       height="9.5201406"
       x="21.349998"
       y="113.14653"
       id="rect2879"
       style="opacity:0.3;fill:url(#linearGradient2483);fill-opacity:1;fill-rule:nonzero;stroke:none;stroke-width:1;marker:none;visibility:visible;display:inline;overflow:visible" />
    <path
       d="m 21.35,113.14694 c 0,0 0,9.51962 0,9.51962 -3.040314,0.0179 -7.35,-2.13287 -7.35,-4.76043 0,-2.62755 3.392762,-4.75919 7.35,-4.75919 z"
       id="path2881"
       style="opacity:0.3;fill:url(#radialGradient2485);fill-opacity:1;fill-rule:nonzero;stroke:none;stroke-width:1;marker:none;visibility:visible;display:inline;overflow:visible" />
    <path
       d="m 104.64999,113.14694 c 0,0 0,9.51962 0,9.51962 3.04032,0.0179 7.35001,-2.13287 7.35001,-4.76043 0,-2.62755 -3.39277,-4.75919 -7.35001,-4.75919 z"
       id="path2883"
       style="opacity:0.3;fill:url(#radialGradient2487);fill-opacity:1;fill-rule:nonzero;stroke:none;stroke-width:1;marker:none;visibility:visible;display:inline;overflow:visible" />
  </g>
  <path
     d="m 17.499961,1.499962 c 21.311039,0 42.622077,0 63.933118,0 3.738416,1.2619859 23.822451,15.639336 29.066961,25.594247 0,30.468614 0,60.937223 0,91.405831 -31.000026,0 -62.000051,0 -93.000079,0 0,-39.000023 0,-78.000052 0,-117.000078 z"
     id="path4160"
     style="display:inline;fill:url(#linearGradient2465);fill-opacity:1;stroke:url(#linearGradient2467);stroke-width:0.999922;stroke-linecap:butt;stroke-linejoin:round;stroke-miterlimit:4;stroke-dasharray:none;stroke-dashoffset:0;stroke-opacity:1" />
  <path
     d="M 18.978723,118 C 18.439449,118 18,117.52697 18,116.94648 V 3.1668773 C 18,2.5853392 18.439449,2.1133645 18.978723,2.1133645 39.22709,2.4045657 61.66587,1.6777678 81.889633,2.1858707 L 109.71323,26.088148 110,116.94648 C 110,117.52697 109.56154,118 109.02128,118 Z"
     id="path4191"
     style="display:inline;fill:url(#radialGradient2462);fill-opacity:1" />
  <path
     d="m 109.50003,26.517935 c 0,29.94778 0,61.034321 0,90.982105 -30.333353,0 -60.666712,0 -91.00007,0 0,-38.333364 0,-76.666721 0,-115.0000784 20.852737,0 42.202796,0 63.055535,0"
     id="path2435"
     style="opacity:0.6;fill:none;stroke:url(#linearGradient2459);stroke-width:0.99992174;stroke-linecap:butt;stroke-linejoin:round;stroke-miterlimit:4;stroke-opacity:1;stroke-dasharray:none;stroke-dashoffset:0;display:inline" />
  <path
     d="M 71.923062,1.8392376 C 84.951381,1.8392376 78.473694,27.646803 78.473694,27.646803 C 78.473694,27.646803 109.98379,20.457276 109.98379,33.209225 C 109.98379,33.209225 110.05573,27.150866 110.05573,27.150866 C 103.32475,20.41989 89.06065,7.2507492 79.88133,2.2376883 C 79.88133,2.2376883 71.923062,1.8392376 71.923062,1.8392376 L 71.923062,1.8392376 z"
     id="path3232"
     style="opacity:0.05;fill:#000000;fill-opacity:1;fill-rule:evenodd;stroke:none;display:inline"
     sodipodi:nodetypes="cccsscc" />
  <path
     d="M 74.395876,1.8392376 C 86.577743,1.8392376 80.520913,25.970079 80.520913,25.970079 C 80.520913,25.970079 109.98379,20.329555 109.98379,32.11062 C 111.54407,22.058999 83.996871,-1.2887721 74.395876,1.8392376 L 74.395876,1.8392376 z"
     id="path3230"
     style="opacity:0.1;fill:#000000;fill-opacity:1;fill-rule:evenodd;stroke:none;display:inline"
     sodipodi:nodetypes="ccccc" />
  <path
     d="M 30.770506,9.4044296 C 30.770506,9.4044296 41.128148,7.6020829 41.128148,12.223174 C 41.128148,9.6134507 35.296571,2.3137247 28.617256,0.92125832 C 31.864351,2.1641973 31.423163,6.3282809 30.770506,9.4044296 z"
     id="path12038"
     style="opacity:0.15;fill:#000000;fill-opacity:1;fill-rule:evenodd;stroke:none;display:inline"
     transform="matrix(2.6666667,0,0,2.6666667,0.3087257,-0.6174513)"
     sodipodi:nodetypes="cscc" />
  <path
     d="m 76.62141,1.8392376 c 8.497314,0 6.228693,20.4316764 6.228693,20.4316764 0,0 27.133687,-2.616144 27.133687,9.706766 0,-3.002504 0.2291,-5.152653 -0.35674,-6.089581 C 105.41822,19.156956 87.239007,4.052365 80.67425,2.0726634 80.182991,1.9245177 79.093706,1.8392376 76.62141,1.8392376 z"
     id="path4474"
     style="fill:url(#linearGradient2455);fill-opacity:1;fill-rule:evenodd;stroke:none;display:inline" />
  <path
     id="path12911"
     style="fill:#ffffff;stroke-width:2.00002"
     d="M 56.539062 66.984375 C 55.618185 66.947175 53.777344 68.714465 53.777344 71.365234 C 53.777344 71.672637 53.67992 73.220314 53.636719 73.486328 C 54.268828 73.412928 54.843064 73.365535 55.306641 73.359375 C 58.161759 73.320975 58.333984 74.050781 58.333984 74.050781 C 59.538132 75.065831 60.221243 78.378906 60.220703 78.378906 C 59.617829 77.624043 58.178392 75.801514 57.431641 75.542969 C 57.621682 76.115814 58.347157 77.835714 58.228516 78.345703 C 57.432908 77.455826 55.728039 75.595238 54.556641 75.439453 C 55.086506 76.164799 55.721796 78.127327 55.558594 78.892578 C 55.048589 77.723387 53.381374 75.882845 52.242188 75.630859 C 52.345268 76.821918 52.807054 78.662549 52.138672 79.083984 C 50.685734 73.898257 49.919922 73.550781 49.919922 73.550781 C 49.000402 71.088935 47.272535 68.325587 46.132812 72.220703 C 44.400948 76.400063 44.258134 77.376546 43.919922 79.412109 C 43.840402 79.888702 43.783223 80.29715 43.732422 80.675781 C 43.789982 82.685539 44.360484 84.056254 44.8125 85.138672 C 45.129784 86.198542 45.657412 87.370201 46.535156 88.568359 C 49.504452 92.622545 50.316406 94.616414 50.316406 96.541016 C 50.729243 97.581209 48.294952 92.547495 46.669922 90.628906 C 47.748448 92.769962 48.72128 94.908848 48.898438 97.021484 C 47.077456 93.424266 45.679362 91.93178 44.511719 91.591797 C 45.284242 93.885354 45.917826 96.06298 45.525391 97.367188 C 44.444717 94.629774 43.16945 93.196814 41.814453 92.28125 C 40.992538 94.268712 40.908822 96.427058 42.083984 98.876953 C 40.932986 98.286072 39.685192 97.134652 38.269531 94.994141 C 38.670015 96.666208 39.046332 98.33927 40.53125 100.04688 C 39.455944 100.17095 38.350031 99.865689 37.222656 99.220703 C 38.343055 102.26421 40.50261 105.21079 43.431641 108.08594 C 40.476842 106.51991 37.574176 104.57891 34.794922 101.69336 C 35.178229 103.77047 35.908886 105.61933 37.898438 106.64258 C 36.299712 106.81202 34.702929 106.68692 33.107422 105.88672 C 34.437193 108.63889 36.930713 110.77441 39.720703 112.75586 C 37.052042 111.96929 34.398442 111.06235 32.023438 108.35938 C 31.893537 109.95164 32.338679 111.48213 33.242188 112.96289 C 31.811484 112.05061 30.606145 110.87198 29.697266 109.35352 C 29.726434 112.47761 30.886519 115.30114 32.425781 118.02148 L 65.820312 118.02148 C 63.909383 116.21563 61.804779 114.53862 59.46875 113.16016 C 51.280237 108.6113 56.417133 100.77864 57.003906 98.011719 C 57.003906 98.011719 63.56972 101.88626 68.326172 94.738281 C 72.623085 95.865384 77.304354 93.540191 81 94.902344 C 83.245626 95.904277 92.688512 95.298912 89.179688 89.925781 C 88.659486 90.383838 89.42226 90.884244 88.916016 91.566406 C 88.764615 91.762648 88.468567 92.392333 87.488281 92.6875 C 86.387751 93.218256 84.582609 93.65435 82.476562 91.375 C 80.957824 90.235326 79.85446 91.225972 79.001953 91.144531 C 79.533426 90.791968 81.021057 90.017578 83.427734 90.017578 C 84.787027 90.017578 85.510161 91.220551 86.417969 91.226562 C 87.030511 91.230562 88.821076 90.290917 89.179688 89.925781 C 91.386124 88.45924 91.614996 88.932112 92.71875 86.699219 C 93.311963 83.992425 91.968742 83.414483 91.558594 82.673828 C 91.448553 80.952021 90.033401 80.288725 88.341797 81.513672 C 84.466309 80.804722 80.663387 81.139217 78.787109 80.978516 C 74.673795 80.39201 69.443359 78.572266 69.443359 78.572266 C 69.9437 77.895019 69.708577 76.430655 66.496094 76.330078 C 64.731486 75.738649 62.871202 75.418509 61.509766 75.404297 C 58.683083 73.879714 57.846447 70.034034 57.054688 67.658203 C 57.054688 67.210668 56.846009 66.996767 56.539062 66.984375 z M 56.230469 80.732422 C 58.74398 81.687343 62.327496 81.665857 63.916016 81.351562 C 63.778614 81.442322 64.129872 81.360366 63.298828 81.667969 C 63.069586 81.957131 63.056608 81.616609 62.998047 82.537109 C 62.466574 83.078251 60.703868 83.261585 59.330078 82.828125 C 57.809733 82.133391 57.872892 81.736527 57.755859 81.345703 C 57.607139 81.254943 56.440916 80.858144 56.230469 80.732422 z M 82.599609 83.867188 C 83.005129 83.841588 83.45321 83.893959 83.921875 84 C 85.177019 84.370044 84.774663 85.298584 84.480469 85.914062 C 84.909949 84.375364 83.534745 84.074907 81.509766 84.201172 C 81.829448 83.99701 82.194094 83.893107 82.599609 83.867188 z M 82.648438 84.501953 C 83.551411 84.501953 84.28125 85.000535 84.28125 85.613281 C 84.28125 86.226027 83.551411 86.722656 82.648438 86.722656 C 84.566588 86.109907 82.54241 84.179528 81.015625 85.613281 C 81.015625 85.000531 81.745461 84.501953 82.648438 84.501953 z M 27.775391 112.13867 C 27.67818 114.16086 28.031018 116.11528 28.720703 118.02148 L 31.779297 118.02148 C 30.238116 116.36354 28.792743 114.56923 27.775391 112.13867 z M 23.457031 114.60938 C 23.074977 115.83755 23.039105 116.96446 23.240234 118.02148 L 27.128906 118.02148 C 26.541726 117.20603 25.967145 116.16414 25.412109 114.68164 C 24.968137 115.284 25.081951 116.1948 25.412109 117.22461 C 24.476384 116.88845 23.806518 116.05077 23.457031 114.60938 z " />
  <path
     style="fill:#ffffff;stroke-width:2.00002"
     d="m 72.56793,51.000044 c -0.294443,0.0048 -0.722715,0.373964 -1.084179,1.202112 -0.886333,1.640365 -2.023373,2.356065 -2.013173,3.567889 0.405316,0.688183 -3.019431,1.698166 -1.937684,3.85508 -0.76662,0.963666 -2.568702,2.202511 -1.92824,3.679986 -0.325323,0.724804 -2.624115,2.423165 -1.632561,4.029094 -2.162954,1.468735 -2.033841,1.822919 -1.576984,3.166481 -1.156904,0.754315 -2.367652,2.257959 -1.760482,3.487824 0,0 -0.135402,4.685186 3.605889,2.023751 1.938016,0.04592 1.082087,-2.712346 1.082087,-2.712346 1.307218,-0.367324 1.507276,-2.100058 0.991903,-3.120573 1.667445,0.04592 1.402558,-2.578818 1.172252,-3.487828 1.307225,-0.504517 1.487967,-2.093997 0.946825,-3.350102 1.577253,-0.366764 1.621561,-2.248128 1.486812,-3.578569 1.622349,-0.09184 1.397682,-2.983811 1.397682,-3.580705 1.397951,-0.917754 1.082703,-2.156511 1.302274,-3.59245 0.484677,-0.999262 0.326163,-1.595596 -0.05244,-1.589644 z m -2.364436,3.713086 c -0.414981,1.199801 0.304083,1.055087 1.176452,1.041971 -0.398324,0.434553 -1.570696,0.566046 -1.570696,0.123841 0,-0.442204 0.394244,-1.165808 0.394244,-1.165808 z m -2.286836,3.426972 c -0.41552,1.200348 0.934238,1.371094 1.806615,1.357978 -0.398324,0.434552 -1.694738,0.44386 -1.90518,-0.0918 -0.337683,-0.682167 0.09856,-1.266165 0.09856,-1.266165 z m -1.683937,3.528392 c -0.299003,1.242985 0.785348,1.522668 1.657721,1.510644 -0.398324,0.434552 -1.920904,0.354644 -1.920904,-0.08752 -0.271643,-0.686539 0.263163,-1.423103 0.263163,-1.423103 z m -1.651433,3.914861 c -0.299003,1.243533 1.456411,1.214136 2.328784,1.202108 -0.398324,0.434557 -1.636485,0.850025 -2.408473,0.407824 -0.673203,-0.766892 0.07968,-1.609932 0.07968,-1.609932 z m -1.613685,3.128044 c -0.374164,0.748308 1.969676,1.497072 2.841509,1.483955 -0.398324,0.434553 -2.080009,0.76782 -2.851993,0.325604 -0.834797,-1.037463 0.0104,-1.809571 0.0104,-1.809571 z m -1.689177,3.684262 c -0.298484,1.243533 2.686327,1.085503 3.558704,1.072931 -0.398324,0.434553 -2.866409,0.979206 -3.638393,0.536998 -0.673203,-0.766888 0.07968,-1.609929 0.07968,-1.609929 z"
     id="path12913" />
  <path
     id="path12915"
     style="opacity:0.5;fill:#ffffff;stroke-width:2.00002"
     d="M 56.171875 73.292969 C 54.87409 73.310169 52.968018 73.553953 50.166016 74.228516 C 49.590518 74.633003 51.455078 76.808594 51.455078 76.808594 C 51.455078 76.808594 50.816617 77.488895 51.154297 77.144531 C 51.290138 77.75837 52.236624 79.280524 51.904297 79.552734 C 52.572671 79.131299 53.144089 78.017227 53.041016 76.826172 C 54.180202 77.078135 55.048589 77.723387 55.558594 78.892578 C 55.721796 78.127327 55.885354 77.365972 55.355469 76.640625 C 56.526864 76.796427 57.432908 77.455826 58.228516 78.345703 C 58.347157 77.835714 58.418557 77.316986 58.228516 76.744141 C 58.975263 77.002703 59.617825 77.624043 60.220703 78.378906 C 60.221243 78.378906 60.704184 76.10294 59.5 75.087891 C 59.258398 74.841888 58.842 74.765695 58.931641 74.316406 C 58.931641 74.316406 59.027 73.254721 56.171875 73.292969 z M 44.484375 75.714844 C 43.078373 76.601441 42.571856 79.37164 37.464844 81.119141 C 35.74103 81.70893 33.492136 82.18567 30.507812 82.431641 C 27.048808 82.716147 21.480781 86.914988 18 92.257812 L 18 116.70898 C 18.349614 117.21553 18.779435 117.65829 19.271484 118.02148 L 23.240234 118.02148 C 23.039103 116.96445 23.074972 115.83756 23.457031 114.60938 C 23.806518 116.05078 24.476388 116.88845 25.412109 117.22461 C 25.081951 116.1948 24.968137 115.284 25.412109 114.68164 C 25.963382 116.15409 26.53415 117.20818 27.117188 118.02148 L 28.720703 118.02148 C 28.031014 116.11528 27.678173 114.16086 27.775391 112.13867 C 28.792743 114.56923 30.238116 116.36353 31.779297 118.02148 L 32.425781 118.02148 C 30.88652 115.30114 29.726436 112.47762 29.697266 109.35352 C 30.606145 110.87198 31.811496 112.05061 33.242188 112.96289 C 32.338679 111.48213 31.893521 109.95164 32.023438 108.35938 C 34.398442 111.06234 37.052042 111.96929 39.720703 112.75586 C 36.930717 110.77441 34.437191 108.63889 33.107422 105.88672 C 34.702929 106.68696 36.299712 106.81203 37.898438 106.64258 C 35.908886 105.61933 35.178231 103.77047 34.794922 101.69336 C 37.574174 104.5789 40.476842 106.51992 43.431641 108.08594 C 40.50261 105.21079 38.343055 102.26421 37.222656 99.220703 C 38.350035 99.865701 39.455944 100.17095 40.53125 100.04688 C 39.046332 98.339276 38.670019 96.664259 38.269531 94.992188 C 39.685196 97.132699 40.932986 98.286068 42.083984 98.876953 C 40.90883 96.427058 40.992554 94.268712 41.814453 92.28125 C 43.169454 93.196814 44.444721 94.629778 45.525391 97.367188 C 45.917834 96.062984 45.284222 93.885354 44.511719 91.591797 C 45.679362 91.9318 47.077452 93.424262 48.898438 97.021484 C 48.721276 94.908848 47.748448 92.769962 46.669922 90.628906 C 48.294952 92.547491 50.729239 97.581209 50.316406 96.541016 C 50.316406 94.616414 49.504452 92.620592 46.535156 88.566406 C 45.657416 87.368247 45.129776 86.198542 44.8125 85.138672 C 44.060382 83.337607 42.974233 80.751276 44.484375 75.714844 z " />
  <path
     style="opacity:0.2;stroke-width:2.00002"
     d="m 72.578698,53.002085 c -0.119321,1.249057 -0.009,2.35732 -1.261731,3.179721 0,0.2477 0.0162,0.903819 -0.05468,1.578142 0.04114,-0.0011 0.07524,-0.0032 0.117181,-0.004 -0.03026,0.03302 -0.08666,0.05266 -0.125001,0.08204 -0.109281,0.926373 -0.413659,1.873589 -1.335952,1.925802 0.134741,1.330441 0.09286,3.211397 -1.48439,3.578161 0.264607,0.614206 0.351146,1.306869 0.222659,1.914081 1.342588,-0.494117 1.389322,-2.232473 1.261731,-3.492222 1.622349,-0.09184 1.398452,-2.985175 1.398452,-3.582069 1.397951,-0.917753 1.085131,-2.157848 1.304702,-3.593787 0.478959,-0.987474 0.326023,-1.577814 -0.04296,-1.585954 z m -2.113302,2.714872 c -0.102761,0.134201 -0.211682,0.280465 -0.304691,0.406254 0.377682,0.05486 0.956414,-0.08098 1.218763,-0.367192 -0.362188,0.0054 -0.675055,0.016 -0.914072,-0.03906 z m -2.257835,3.468786 c -0.104301,0.09622 -0.197842,0.202884 -0.292973,0.308597 0.333842,0.422116 1.439783,0.406282 1.808613,0.004 -0.490711,0.0074 -1.12251,-0.05262 -1.51564,-0.312503 z m -1.726582,3.585975 c -0.145541,0.158721 -0.297055,0.311975 -0.425784,0.480473 0.319643,0.291739 1.492761,0.300191 1.835955,-0.07422 -0.503837,0.007 -1.071563,-0.09 -1.410171,-0.406253 z m 2.042991,2.902374 c -0.190542,0.448194 -0.524221,0.81693 -1.039072,1.015634 0.106681,0.421063 0.20279,1.208223 0.128901,1.929708 1.076111,-0.511611 1.275313,-1.801522 0.910165,-2.945342 z m -3.734414,0.703131 c -0.154322,0.184302 -0.307735,0.359596 -0.453129,0.566412 0.0421,0.08328 0.09148,0.167322 0.164062,0.250002 0.771988,0.442201 2.011857,0.0283 2.410181,-0.406254 -0.614981,0.0084 -1.657735,0.0164 -2.121114,-0.41016 z m 2.753934,2.683622 c -0.154161,0.635954 -0.500265,1.137309 -1.23048,1.117199 0.283047,0.560474 0.338517,1.33048 0.125001,1.976583 1.357068,-0.09188 1.295343,-2.041963 1.105479,-3.093782 z m -3.890664,0.515631 c -0.335105,0.238514 -0.667313,0.476047 -0.875009,0.664069 0.05082,0.0923 0.101301,0.183842 0.179682,0.281253 0.771984,0.442216 2.453267,0.106421 2.851591,-0.32813 -0.510523,0.0076 -1.478039,-0.256436 -2.156272,-0.617192 z m 2.710966,2.785185 c -0.195922,0.437976 -0.531055,0.79366 -1.042981,0.937509 0,0 0.359178,1.162109 0.08204,1.964865 1.16057,-0.396928 1.366258,-1.895226 0.960948,-2.902374 z m -4.722707,0.753914 c -0.219748,0.208978 -0.403202,0.440604 -0.57813,0.683601 0.03898,0.06916 0.0765,0.138421 0.136722,0.207032 0.771984,0.442208 3.238433,-0.104521 3.636757,-0.539068 -0.641188,0.0092 -2.414233,0.09554 -3.195349,-0.351565 z M 60.668419,74.4359 c -0.03968,0.0919 -0.0696,0.184382 -0.09766,0.277347 0.04682,0.0404 0.08462,0.08998 0.132822,0.128901 -0.03236,-0.225238 -0.02572,-0.25383 -0.03516,-0.406254 z m 4.675831,0.94923 c -0.101741,0.220872 -0.252381,0.411062 -0.4961,0.519535 0.204939,0.04868 0.408825,0.112202 0.613289,0.160162 -0.04566,-0.348168 -0.09322,-0.597122 -0.117181,-0.679693 z m -9.113377,5.347711 c 0.210447,0.125722 1.374733,0.522526 1.523454,0.613287 0.117041,0.390824 0.05388,0.78575 1.574234,1.480485 1.373791,0.43346 3.136535,0.252075 3.668008,-0.289067 0.05856,-0.920504 0.07154,-0.58194 0.300785,-0.871103 0.831043,-0.307609 0.483697,-0.225648 0.621099,-0.316409 -1.588521,0.314295 -5.174066,0.337729 -7.68758,-0.617193 z m 36.512098,5.808652 c -0.0108,0.0557 -0.0108,0.09866 -0.02344,0.156262 -1.103755,2.232893 -1.332659,1.760052 -3.539098,3.226595 0.382836,0.586242 0.586862,1.105212 0.687507,1.582047 1.393598,-0.817865 1.92171,-0.927474 2.851591,-2.808621 0.208871,-0.953068 0.169442,-1.631333 0.02344,-2.156275 z m -3.562537,3.382849 c -0.358612,0.365136 -2.149206,1.308704 -2.761749,1.3047 -0.907809,-0.006 -1.632923,-1.210949 -2.992217,-1.210949 -2.40668,0 -3.894354,0.776354 -4.425827,1.128918 0.852508,0.08144 1.957858,-0.91311 3.476598,0.226564 0.238022,0.257607 0.469474,0.472047 0.699227,0.664069 0.08944,-0.0022 0.157861,-0.0196 0.250002,-0.0196 1.13434,0 1.828933,0.804718 2.554713,1.085947 0.58621,-0.03542 1.097003,-0.219842 1.507829,-0.417972 0.980287,-0.295167 1.274394,-0.924864 1.425795,-1.121106 0.506245,-0.682163 -0.254572,-1.182584 0.265629,-1.640641 z m 0.550786,3.093782 c -0.430689,0.894326 -1.473342,1.476444 -2.707058,1.832049 -0.345824,0.128042 -0.713062,0.237095 -1.14845,0.250003 -1.91941,0.321593 -3.972633,0.203412 -4.875051,-0.199222 -3.69565,-1.362152 -8.37509,0.96304 -12.672007,-0.164062 -4.756453,7.147978 -11.324335,3.273472 -11.324335,3.273472 -0.365689,1.724406 -2.493145,5.416336 -2.066427,9.054776 0.300947,-2.92914 1.768032,-5.64767 2.066427,-7.05475 0,0 6.567882,3.8745 11.324335,-3.273477 4.296917,1.127103 8.976357,-1.198089 12.672007,0.164061 2.081884,0.928878 10.331775,0.469475 8.730559,-3.88285 z"
     id="path12919" />
</svg>
