<?xml version="1.0" encoding="UTF-8" standalone="no"?>
<!-- Created with Inkscape (http://www.inkscape.org/) -->

<svg
   version="1.0"
   width="22"
   height="22"
   id="svg3386"
   sodipodi:docname="application-x-cmakecache.svg"
   inkscape:version="1.2.1 (9c6d41e410, 2022-07-14)"
   xmlns:inkscape="http://www.inkscape.org/namespaces/inkscape"
   xmlns:sodipodi="http://sodipodi.sourceforge.net/DTD/sodipodi-0.dtd"
   xmlns:xlink="http://www.w3.org/1999/xlink"
   xmlns="http://www.w3.org/2000/svg"
   xmlns:svg="http://www.w3.org/2000/svg">
  <sodipodi:namedview
     id="namedview34"
     pagecolor="#ffffff"
     bordercolor="#000000"
     borderopacity="0.25"
     inkscape:showpageshadow="2"
     inkscape:pageopacity="0.0"
     inkscape:pagecheckerboard="0"
     inkscape:deskcolor="#d1d1d1"
     showgrid="false"
     inkscape:zoom="25.727273"
     inkscape:cx="11"
     inkscape:cy="11.019435"
     inkscape:window-width="1536"
     inkscape:window-height="772"
     inkscape:window-x="0"
     inkscape:window-y="0"
     inkscape:window-maximized="1"
     inkscape:current-layer="svg3386" />
  <defs
     id="defs3388">
    <linearGradient
       id="linearGradient3104">
      <stop
         id="stop3106"
         style="stop-color:#aaaaaa;stop-opacity:1"
         offset="0" />
      <stop
         id="stop3108"
         style="stop-color:#c8c8c8;stop-opacity:1"
         offset="1" />
    </linearGradient>
    <linearGradient
       id="linearGradient3600">
      <stop
         id="stop3602"
         style="stop-color:#f4f4f4;stop-opacity:1"
         offset="0" />
      <stop
         id="stop3604"
         style="stop-color:#dbdbdb;stop-opacity:1"
         offset="1" />
    </linearGradient>
    <radialGradient
       cx="102"
       cy="112.3047"
       r="139.55859"
       id="XMLID_8_"
       gradientUnits="userSpaceOnUse">
      <stop
         id="stop41"
         style="stop-color:#b7b8b9;stop-opacity:1"
         offset="0" />
      <stop
         id="stop47"
         style="stop-color:#ececec;stop-opacity:1"
         offset="0.17402567" />
      <stop
         id="stop49"
         style="stop-color:#fafafa;stop-opacity:0"
         offset="0.23907544" />
      <stop
         id="stop51"
         style="stop-color:#ffffff;stop-opacity:0"
         offset="0.30111277" />
      <stop
         id="stop53"
         style="stop-color:#fafafa;stop-opacity:0"
         offset="0.53130001" />
      <stop
         id="stop55"
         style="stop-color:#ebecec;stop-opacity:0"
         offset="0.84490001" />
      <stop
         id="stop57"
         style="stop-color:#e1e2e3;stop-opacity:0"
         offset="1" />
    </radialGradient>
    <linearGradient
       id="linearGradient3211">
      <stop
         id="stop3213"
         style="stop-color:#ffffff;stop-opacity:1"
         offset="0" />
      <stop
         id="stop3215"
         style="stop-color:#ffffff;stop-opacity:0"
         offset="1" />
    </linearGradient>
    <linearGradient
       id="linearGradient8589">
      <stop
         id="stop8591"
         style="stop-color:#fefefe;stop-opacity:1"
         offset="0" />
      <stop
         id="stop8593"
         style="stop-color:#cbcbcb;stop-opacity:1"
         offset="1" />
    </linearGradient>
    <linearGradient
       x1="32.892288"
       y1="8.0590115"
       x2="36.358372"
       y2="5.4565363"
       id="linearGradient2425"
       xlink:href="#linearGradient8589"
       gradientUnits="userSpaceOnUse"
       gradientTransform="matrix(0.4778466,0,0,0.5524833,-0.62774609,-0.0761283)" />
    <linearGradient
       x1="24"
       y1="1.9999999"
       x2="24"
       y2="46.01725"
       id="linearGradient2429"
       xlink:href="#linearGradient3211"
       gradientUnits="userSpaceOnUse"
       gradientTransform="matrix(0.4545444,0,0,0.4651153,0.09093361,0.3372293)" />
    <radialGradient
       cx="92.090363"
       cy="102.70267"
       r="139.55859"
       fx="92.090363"
       fy="102.70267"
       id="radialGradient2432"
       xlink:href="#XMLID_8_"
       gradientUnits="userSpaceOnUse"
       gradientTransform="matrix(0.1702128,0,0,-0.1907226,0.10638221,23.716504)" />
    <linearGradient
       x1="25.132275"
       y1="0.98520643"
       x2="25.132275"
       y2="47.013336"
       id="linearGradient2435"
       xlink:href="#linearGradient3600"
       gradientUnits="userSpaceOnUse"
       gradientTransform="matrix(0.4857154,0,0,0.4780255,-0.65717039,-0.7059501)" />
    <linearGradient
       x1="-51.786404"
       y1="50.786446"
       x2="-51.786404"
       y2="2.9062471"
       id="linearGradient2438"
       xlink:href="#linearGradient3104"
       gradientUnits="userSpaceOnUse"
       gradientTransform="matrix(0.3922135,0,0,0.4473607,28.199292,-1.2386997)" />
    <linearGradient
       inkscape:collect="always"
       xlink:href="#linearGradient3211"
       id="linearGradient3830"
       x1="12"
       y1="16"
       x2="12"
       y2="8"
       gradientUnits="userSpaceOnUse"
       gradientTransform="matrix(0.64374755,0,0,0.64374755,3.2750287,5.2750291)" />
    <linearGradient
       gradientTransform="matrix(0.63636364,0,0,0.63636364,3.3636361,5.363636)"
       inkscape:collect="always"
       xlink:href="#linearGradient3211"
       id="linearGradient3814"
       gradientUnits="userSpaceOnUse"
       x1="12.47939"
       y1="2"
       x2="12.47939"
       y2="22.006775" />
    <linearGradient
       inkscape:collect="always"
       xlink:href="#linearGradient5128"
       id="linearGradient3610"
       gradientUnits="userSpaceOnUse"
       gradientTransform="matrix(0.09941983,0,0,0.0994199,4.637127,6.7365467)"
       x1="86.132919"
       y1="105.105"
       x2="84.63858"
       y2="20.895" />
    <linearGradient
       id="linearGradient5128">
      <stop
         id="stop5130"
         style="stop-color:#ffffff;stop-opacity:1"
         offset="0" />
      <stop
         id="stop5132"
         style="stop-color:#959595;stop-opacity:1"
         offset="1" />
    </linearGradient>
    <linearGradient
       inkscape:collect="always"
       xlink:href="#linearGradient3309-1"
       id="linearGradient3614-2"
       gradientUnits="userSpaceOnUse"
       gradientTransform="matrix(0.49494955,0,0,0.49494955,-4.3434352,-3.3333358)"
       x1="32.036148"
       y1="19"
       x2="32.036148"
       y2="47.012184" />
    <linearGradient
       x1="63.9995"
       y1="3.1001"
       x2="63.9995"
       y2="122.8994"
       id="linearGradient3309-1"
       gradientUnits="userSpaceOnUse">
      <stop
         id="stop3311-5"
         style="stop-color:#f6f6f6;stop-opacity:1"
         offset="0" />
      <stop
         id="stop3313-0"
         style="stop-color:#d2d2d2;stop-opacity:1"
         offset="1" />
    </linearGradient>
    <linearGradient
       inkscape:collect="always"
       xlink:href="#linearGradient3397-0"
       id="linearGradient3616-9"
       gradientUnits="userSpaceOnUse"
       gradientTransform="matrix(0.49494955,0,0,0.49494955,-4.3434352,-3.3333358)"
       x1="25.922546"
       y1="19"
       x2="25.922546"
       y2="47.044857" />
    <linearGradient
       id="linearGradient3397-0">
      <stop
         id="stop3399-4"
         style="stop-color:#aaaaaa;stop-opacity:1"
         offset="0" />
      <stop
         id="stop3401-0"
         style="stop-color:#8c8c8c;stop-opacity:1"
         offset="1" />
    </linearGradient>
  </defs>
  <path
     d="m 2.4999608,0.499961 c 3.8955799,0 7.6044552,0 11.5000382,0 0.683368,0.2372969 4.541325,3.12817 5.5,5.000039 0,5.729157 3.9e-5,10.270842 3.9e-5,16 l -17.0000772,0 c 0,-7.33336 0,-13.6666811 0,-21.000039 z"
     id="path4160"
     style="fill:url(#linearGradient2435);fill-opacity:1;stroke:url(#linearGradient2438);stroke-width:0.99992162;stroke-linecap:butt;stroke-linejoin:round;stroke-miterlimit:4;stroke-opacity:1;stroke-dasharray:none;stroke-dashoffset:0;display:inline" />
  <path
     d="M 3.1702119,22 C 3.0764249,22 2.9999991,21.91437 2.9999991,21.809277 l 0,-20.5980318 c 0,-0.1052785 0.076426,-0.1907219 0.1702128,-0.1907219 3.5214555,0.052717 7.4238521,-0.0788581 10.9410271,0.013125 l 4.838887,4.3271368 0.04987,16.4484919 C 18.999999,21.914366 18.923742,22 18.829785,22 L 3.1702119,22 z"
     id="path4191"
     style="fill:url(#radialGradient2432);fill-opacity:1" />
  <path
     d="m 18.5,5.6770357 c 0,5.2083053 0,10.6146573 0,15.8229643 -5,0 -9.9999997,0 -15.0000009,0 0,-6.66667 0,-13.3333343 0,-20.0000001 3.4372614,0 6.9564989,0 10.3937609,0"
     id="path2435"
     style="opacity:0.6;fill:none;stroke:url(#linearGradient2429);stroke-width:0.99999988;stroke-linecap:butt;stroke-linejoin:miter;stroke-miterlimit:4;stroke-opacity:1;stroke-dasharray:none;stroke-dashoffset:0;display:inline" />
  <path
     d="m 13.075473,1 c 1.156303,0.3287671 0.339059,4.6143789 0.339059,4.6143789 0,0 4.515388,-0.4277362 5.60771,1.1949961 C 20.511395,9.0216317 18.954022,6.1742029 18.848795,5.9876778 18.092867,4.6476323 14.982455,1.4405918 13.803386,1.0464703 13.715154,1.0169778 13.51951,1 13.075473,1 z"
     id="path3370"
     style="opacity:0.2;fill:#000000;fill-opacity:1;fill-rule:evenodd;stroke:none;display:inline" />
  <path
     d="m 12.999999,1 c 1.526166,0 1,4 1,4 0,0 4.992074,-0.45326 4.992074,2 0,-0.5977419 0.05575,-1.4784338 -0.06407,-1.6559326 C 18.088896,4.1010616 15.184238,1.4821803 14.129934,1.0464703 14.043956,1.0109384 13.444036,1 12.999999,1 z"
     id="path4474"
     style="fill:url(#linearGradient2425);fill-opacity:1;fill-rule:evenodd;stroke:none;display:inline" />
  <path
     style="color:#000000;display:block;overflow:visible;visibility:visible;fill:url(#linearGradient3614-2);fill-opacity:1;fill-rule:nonzero;stroke:url(#linearGradient3616-9);stroke-width:0.636363;stroke-linecap:butt;stroke-linejoin:round;stroke-miterlimit:4;stroke-dasharray:none;stroke-dashoffset:0;stroke-opacity:1;marker:none;enable-background:accumulate"
     d="m 10.045455,6.3181815 c -0.3525459,0 -0.6363643,0.2838182 -0.6363643,0.6363637 v 0.875 c -0.3228463,0.099135 -0.640671,0.223029 -0.934659,0.377841 L 7.8579544,7.5909087 c -0.2492872,-0.249287 -0.6654855,-0.249287 -0.9147728,0 L 5.5909087,8.9431816 c -0.249287,0.2492874 -0.249287,0.6654854 0,0.9147724 l 0.6164775,0.616478 c -0.154812,0.293987 -0.2787064,0.611813 -0.377841,0.934659 h -0.875 c -0.3525455,0 -0.6363637,0.283818 -0.6363637,0.636364 v 1.90909 c 0,0.352546 0.2838182,0.636364 0.6363637,0.636364 h 0.875 c 0.099135,0.322847 0.223029,0.640671 0.377841,0.93466 l -0.6164775,0.616477 c -0.249287,0.249288 -0.249287,0.665485 0,0.914773 l 1.3522729,1.352272 c 0.2492873,0.249287 0.6654856,0.249287 0.9147728,0 l 0.6164773,-0.616478 c 0.293988,0.154812 0.6118127,0.278708 0.934659,0.377842 v 0.875 c 0,0.352546 0.2838184,0.636364 0.6363643,0.636364 h 1.909091 c 0.352545,0 0.636364,-0.283818 0.636364,-0.636364 v -0.875 c 0.322846,-0.09913 0.64067,-0.22303 0.934659,-0.377842 l 0.616477,0.616478 c 0.249288,0.249287 0.665485,0.249287 0.914773,0 l 1.352272,-1.352272 c 0.249287,-0.249288 0.249287,-0.665485 0,-0.914773 l -0.616478,-0.616477 c 0.154812,-0.293989 0.278708,-0.611813 0.377842,-0.93466 h 0.875 c 0.352546,0 0.636364,-0.283818 0.636364,-0.636364 v -1.90909 c 0,-0.352546 -0.283818,-0.636364 -0.636364,-0.636364 h -0.875 c -0.09913,-0.322846 -0.22303,-0.640672 -0.377842,-0.934659 l 0.616478,-0.616478 c 0.249287,-0.249287 0.249287,-0.665485 0,-0.9147724 L 15.056819,7.5909087 c -0.249288,-0.249287 -0.665485,-0.249287 -0.914773,0 L 13.525569,8.2073862 C 13.23158,8.0525742 12.913756,7.9286798 12.59091,7.8295452 v -0.875 c 0,-0.3525455 -0.283819,-0.6363637 -0.636364,-0.6363637 z M 11,11.409091 c 0.878635,0 1.59091,0.712274 1.59091,1.590909 0,0.878635 -0.712275,1.590909 -1.59091,1.590909 -0.878635,0 -1.5909093,-0.712274 -1.5909093,-1.590909 0,-0.878635 0.7122743,-1.590909 1.5909093,-1.590909 z"
     id="rect3623" />
  <path
     style="opacity:0.05;fill:#000000;fill-opacity:1;stroke:none;stroke-width:0.636363"
     d="m 11,9.181818 c -2.1065566,0 -3.818182,1.711627 -3.818182,3.818182 0,2.106557 1.7116254,3.818183 3.818182,3.818183 2.106556,0 3.818183,-1.711626 3.818183,-3.818183 0,-2.106555 -1.711627,-3.818182 -3.818183,-3.818182 z m 0,1.909091 c 1.054361,0 1.909091,0.854729 1.909091,1.909091 0,1.054361 -0.85473,1.909091 -1.909091,1.909091 -1.0543614,0 -1.909091,-0.85473 -1.909091,-1.909091 0,-1.054362 0.8547296,-1.909091 1.909091,-1.909091 z"
     id="path3315" />
  <path
     style="fill:none;stroke:url(#linearGradient3610);stroke-width:0.636363;stroke-miterlimit:4;stroke-dasharray:none"
     id="path28"
     d="m 11,8.8636356 c -2.2807923,0 -4.1363638,1.8555724 -4.1363638,4.1363624 0,2.280793 1.8555715,4.136365 4.1363638,4.136365 2.280792,0 4.136363,-1.855572 4.136363,-4.136365 0,-2.28079 -1.855571,-4.1363624 -4.136363,-4.1363624 z" />
  <path
     style="color:#000000;display:block;overflow:visible;visibility:visible;opacity:0.8;fill:none;stroke:url(#linearGradient3814);stroke-width:0.636363;stroke-linecap:butt;stroke-linejoin:round;stroke-miterlimit:4;stroke-dasharray:none;stroke-dashoffset:0;stroke-opacity:1;marker:none;enable-background:accumulate"
     d="m 10.045455,6.9346587 c -0.047202,0.2473668 -0.006,0.5734325 -0.01989,0.8504575 0.04117,0.4951413 -0.4901764,0.669998 -0.8707269,0.7742064 C 8.8067354,8.7573819 8.2963901,8.986894 7.9858618,8.5938136 7.7973932,8.4053475 7.6089239,8.2168782 7.4204547,8.0284088 7.145718,8.2108365 6.9210631,8.5141738 6.665705,8.7433858 6.4624097,8.9728598 6.1849087,9.171597 6.0284091,9.420454 c 0.2590127,0.311902 0.6672375,0.533013 0.7800533,0.93989 -0.015693,0.508113 -0.3437381,0.973139 -0.5169741,1.442653 -0.3193407,0.359131 -0.8368444,0.178606 -1.2564015,0.222572 -0.2192706,-0.0082 -0.044755,0.373128 -0.1004277,0.52545 7.663e-4,0.474079 -0.00152,0.948251 0.00115,1.422272 0.4108111,0.04085 0.8635367,-0.09582 1.2380418,0.114334 0.3535713,0.368589 0.4299495,0.93808 0.6406731,1.392851 0.026581,0.479017 -0.4660174,0.716821 -0.7313957,1.04436 -0.1383378,0.17335 0.2451763,0.32082 0.3283128,0.477505 0.3230831,0.323083 0.6461669,0.646168 0.9692499,0.96925 0.3324765,-0.194007 0.5343724,-0.629339 0.9198217,-0.766782 0.5187255,-0.06787 0.9632565,0.347742 1.4533449,0.467078 0.4140784,0.287688 0.2313367,0.833907 0.2717204,1.256915 -0.056325,0.266303 0.33591,0.08264 0.489339,0.136539 0.486116,-7.37e-4 0.972326,0.0016 1.458385,-0.0011 0.04085,-0.41081 -0.09582,-0.863537 0.114333,-1.238041 0.36859,-0.353571 0.93808,-0.42995 1.392852,-0.640674 0.479016,-0.02657 0.716819,0.466017 1.044359,0.731397 0.173349,0.138337 0.32082,-0.245178 0.477507,-0.328314 0.323082,-0.323083 0.646165,-0.646166 0.969248,-0.969249 -0.194007,-0.332477 -0.629338,-0.534374 -0.766781,-0.919823 -0.06787,-0.518725 0.34774,-0.963257 0.467076,-1.453345 0.287687,-0.414078 0.833908,-0.231336 1.256915,-0.27172 0.266303,0.05632 0.08264,-0.335909 0.13654,-0.489339 -7.37e-4,-0.486116 0.0016,-0.972325 -0.0011,-1.458383 -0.410858,-0.04089 -0.863583,0.09578 -1.238089,-0.114375 -0.353568,-0.368589 -0.429946,-0.938079 -0.64067,-1.392851 -0.02658,-0.479017 0.466017,-0.71682 0.731396,-1.044359 C 16.055225,9.301815 15.671711,9.154344 15.588575,8.9976588 15.26549,8.674575 14.942407,8.3514919 14.619325,8.0284088 14.286848,8.2224165 14.084953,8.657747 13.699502,8.7951902 13.180778,8.863057 12.736247,8.4474505 12.246159,8.3281145 11.832081,8.0404259 12.014822,7.4942065 11.974439,7.0711983 c 0.05632,-0.2663028 -0.33591,-0.082645 -0.489341,-0.1365396 -0.479878,0 -0.959758,0 -1.439637,0 z"
     id="path3799"
     sodipodi:nodetypes="ccccccccccccccscccccccccscccccccccsccccccc" />
  <circle
     style="color:#000000;display:block;overflow:visible;visibility:visible;opacity:0.4;fill:none;stroke:url(#linearGradient3830);stroke-width:0.636363;stroke-opacity:1;marker:none;enable-background:accumulate"
     id="path3822"
     cx="10.999999"
     cy="13"
     r="2.2272725" />
</svg>
