<?xml version="1.0" encoding="UTF-8" standalone="no"?>
<!-- Created with Inkscape (http://www.inkscape.org/) -->
<svg
   xmlns:dc="http://purl.org/dc/elements/1.1/"
   xmlns:cc="http://creativecommons.org/ns#"
   xmlns:rdf="http://www.w3.org/1999/02/22-rdf-syntax-ns#"
   xmlns:svg="http://www.w3.org/2000/svg"
   xmlns="http://www.w3.org/2000/svg"
   xmlns:xlink="http://www.w3.org/1999/xlink"
   xmlns:sodipodi="http://sodipodi.sourceforge.net/DTD/sodipodi-0.dtd"
   xmlns:inkscape="http://www.inkscape.org/namespaces/inkscape"
   width="16"
   height="16"
   id="svg2816"
   version="1.0"
   inkscape:version="0.46"
   sodipodi:docname="amsnb16.svg"
   sodipodi:version="0.32"
   inkscape:output_extension="org.inkscape.output.svg.inkscape">
  <defs
     id="defs2818">
    <inkscape:perspective
       sodipodi:type="inkscape:persp3d"
       inkscape:vp_x="0 : 8 : 1"
       inkscape:vp_y="0 : 1000 : 0"
       inkscape:vp_z="16 : 8 : 1"
       inkscape:persp3d-origin="8 : 5.3333333 : 1"
       id="perspective21729" />
    <linearGradient
       id="linearGradient17318"
       inkscape:collect="always">
      <stop
         id="stop17320"
         offset="0"
         style="stop-color:#868686;stop-opacity:1" />
      <stop
         id="stop17322"
         offset="1"
         style="stop-color:#373737;stop-opacity:1" />
    </linearGradient>
    <linearGradient
       id="linearGradient17312"
       inkscape:collect="always">
      <stop
         id="stop17314"
         offset="0"
         style="stop-color:#b29e71;stop-opacity:1" />
      <stop
         id="stop17316"
         offset="1"
         style="stop-color:#554016;stop-opacity:1" />
    </linearGradient>
    <linearGradient
       id="linearGradient17306">
      <stop
         id="stop17308"
         offset="0"
         style="stop-color:#bbcbd5;stop-opacity:1" />
      <stop
         id="stop17310"
         offset="1"
         style="stop-color:#6487a0;stop-opacity:1" />
    </linearGradient>
    <linearGradient
       id="linearGradient17300"
       inkscape:collect="always">
      <stop
         id="stop17302"
         offset="0"
         style="stop-color:#dcaa78;stop-opacity:1" />
      <stop
         id="stop17304"
         offset="1"
         style="stop-color:#e9c8a8;stop-opacity:1" />
    </linearGradient>
    <linearGradient
       id="linearGradient17294"
       inkscape:collect="always">
      <stop
         id="stop17296"
         offset="0"
         style="stop-color:#abbe96;stop-opacity:1" />
      <stop
         id="stop17298"
         offset="1"
         style="stop-color:#5a6f45;stop-opacity:1" />
    </linearGradient>
    <linearGradient
       inkscape:collect="always"
       id="linearGradient4277">
      <stop
         style="stop-color:#6f531e;stop-opacity:1;"
         offset="0"
         id="stop4279" />
      <stop
         style="stop-color:#d1a554;stop-opacity:1"
         offset="1"
         id="stop4281" />
    </linearGradient>
    <linearGradient
       id="linearGradient3734-6">
      <stop
         style="stop-color:#f5e1cd;stop-opacity:0;"
         offset="0"
         id="stop3736-63" />
      <stop
         id="stop3744-7"
         offset="0.34429723"
         style="stop-color:#f5e1cd;stop-opacity:1;" />
      <stop
         id="stop3742-1"
         offset="0.5649305"
         style="stop-color:#f5e1cd;stop-opacity:1;" />
      <stop
         style="stop-color:#f5e1cd;stop-opacity:0;"
         offset="1"
         id="stop3738-3" />
    </linearGradient>
    <linearGradient
       id="linearGradient3734-6-3">
      <stop
         style="stop-color:#f5e1cd;stop-opacity:0;"
         offset="0"
         id="stop3736-63-2" />
      <stop
         id="stop3744-7-6"
         offset="0.34429723"
         style="stop-color:#f5e1cd;stop-opacity:1;" />
      <stop
         id="stop3742-1-1"
         offset="0.5649305"
         style="stop-color:#f5e1cd;stop-opacity:1;" />
      <stop
         style="stop-color:#f5e1cd;stop-opacity:0;"
         offset="1"
         id="stop3738-3-8" />
    </linearGradient>
    <linearGradient
       inkscape:collect="always"
       xlink:href="#linearGradient4277"
       id="linearGradient3277"
       gradientUnits="userSpaceOnUse"
       x1="20.5"
       y1="27.071428"
       x2="16.928572"
       y2="22.928572" />
    <linearGradient
       inkscape:collect="always"
       xlink:href="#linearGradient17300"
       id="linearGradient3279"
       gradientUnits="userSpaceOnUse"
       x1="25.400055"
       y1="27.961306"
       x2="22.038555"
       y2="11.961306" />
    <radialGradient
       inkscape:collect="always"
       xlink:href="#linearGradient17306"
       id="radialGradient3281"
       gradientUnits="userSpaceOnUse"
       gradientTransform="matrix(8.650273e-2,0.6935393,-1.0765675,0.1342765,65.556622,8.7863169)"
       cx="30.134411"
       cy="39.570538"
       fx="30.134411"
       fy="39.570538"
       r="15.310864" />
    <linearGradient
       inkscape:collect="always"
       xlink:href="#linearGradient3734-6"
       id="linearGradient3283"
       gradientUnits="userSpaceOnUse"
       gradientTransform="translate(0,-3.192604)"
       x1="21.955032"
       y1="25.369377"
       x2="31.238283"
       y2="17.298128" />
    <radialGradient
       inkscape:collect="always"
       xlink:href="#linearGradient17312"
       id="radialGradient3285"
       gradientUnits="userSpaceOnUse"
       gradientTransform="matrix(-0.9339439,0.2984272,-0.1569936,-0.4913199,28.357884,9.0391407)"
       cx="13.146789"
       cy="8.0572443"
       fx="13.146789"
       fy="8.0572443"
       r="9.175396" />
    <linearGradient
       inkscape:collect="always"
       xlink:href="#linearGradient17300"
       id="linearGradient3287"
       gradientUnits="userSpaceOnUse"
       x1="25.400055"
       y1="27.961306"
       x2="22.038555"
       y2="11.961306" />
    <radialGradient
       inkscape:collect="always"
       xlink:href="#linearGradient17294"
       id="radialGradient3289"
       gradientUnits="userSpaceOnUse"
       gradientTransform="matrix(8.650273e-2,0.6935393,-1.0765675,0.1342765,65.556622,8.7863169)"
       cx="30.134411"
       cy="39.570538"
       fx="30.134411"
       fy="39.570538"
       r="15.310864" />
    <linearGradient
       inkscape:collect="always"
       xlink:href="#linearGradient3734-6-3"
       id="linearGradient3291"
       gradientUnits="userSpaceOnUse"
       gradientTransform="translate(0,-3.192604)"
       x1="21.955032"
       y1="25.369377"
       x2="31.238283"
       y2="17.298128" />
    <radialGradient
       inkscape:collect="always"
       xlink:href="#linearGradient17318"
       id="radialGradient3293"
       gradientUnits="userSpaceOnUse"
       gradientTransform="matrix(3.8615435e-8,0.3921196,-0.8071792,7.9489976e-8,31.753915,-5.7448433)"
       cx="26.266409"
       cy="6.6020708"
       fx="26.266409"
       fy="6.6020708"
       r="10.198247" />
  </defs>
  <sodipodi:namedview
     id="base"
     pagecolor="#ffffff"
     bordercolor="#666666"
     borderopacity="1.0"
     inkscape:pageopacity="0.0"
     inkscape:pageshadow="2"
     inkscape:zoom="11.313709"
     inkscape:cx="-7.9331399"
     inkscape:cy="6.762098"
     inkscape:current-layer="layer1"
     showgrid="true"
     inkscape:grid-bbox="true"
     inkscape:document-units="px"
     gridtolerance="1"
     showguides="true"
     inkscape:guide-bbox="true" />
  <metadata
     id="metadata2821">
    <rdf:RDF>
      <cc:Work
         rdf:about="">
        <dc:format>image/svg+xml</dc:format>
        <dc:type
           rdf:resource="http://purl.org/dc/dcmitype/StillImage" />
        <dc:title />
      </cc:Work>
    </rdf:RDF>
  </metadata>
  <g
     id="layer1"
     inkscape:label="Layer 1"
     inkscape:groupmode="layer">
    <g
       id="g3295"
       transform="translate(-1.102767e-8,-1.2075899e-2)">
      <g
         transform="matrix(0.3276714,0,0,0.3276714,0.1138361,-0.5434925)"
         id="g2465">
        <path
           sodipodi:type="arc"
           style="fill:url(#linearGradient3277);fill-opacity:1;stroke:#503b14;stroke-width:2.74155021;stroke-linecap:round;stroke-linejoin:round;marker:none;stroke-miterlimit:4;stroke-dasharray:none;stroke-dashoffset:0;stroke-opacity:1;visibility:visible;display:inline;overflow:visible;enable-background:accumulate"
           id="path4275"
           sodipodi:cx="20.5"
           sodipodi:cy="22.928572"
           sodipodi:rx="3.0714285"
           sodipodi:ry="3.6428571"
           d="M 23.571429,22.928572 A 3.0714285,3.6428571 0 1 1 17.428571,22.928572 A 3.0714285,3.6428571 0 1 1 23.571429,22.928572 z"
           transform="matrix(1,0,0,1.2391685,0,-6.3550478)" />
        <g
           id="g3756-2"
           transform="matrix(-0.7578167,0,0,0.7578167,35.238788,5.0475)">
          <path
             id="path3619-1"
             d="M 21.070346,30.54764 L 30.868826,30.345609 L 27.685653,43.552092 L 20.868316,41.457287 L 21.070346,30.54764 L 21.070346,30.54764 z"
             style="fill:#ffffff;stroke:none"
             sodipodi:nodetypes="cccccc" />
          <path
             sodipodi:nodetypes="ccccsccccsccsscc"
             id="path2842-9"
             d="M 20.450644,8.02651 C 15.182747,8.02651 18.941517,26.336406 22.262877,26.188983 L 20.877899,26.594638 L 20.695239,30.782733 C 21.272272,30.877643 23.687523,30.938983 24.288438,30.938983 C 26.718352,30.938983 28.997611,30.132224 30.882188,28.751483 L 31.663438,24.688983 L 31.475938,20.157733 L 34.007188,17.407733 C 34.007188,17.407733 34.88134,14.498352 34.007188,13.563983 C 33.661362,13.194334 32.475938,13.470233 32.475938,13.470233 L 30.975938,14.876483 C 30.975938,14.876483 31.271911,12.134926 30.882188,10.845233 C 30.571421,9.8168273 29.123778,8.4668463 28.05227,8.4295283 L 19.350938,8.1264833 L 20.450644,8.02651 z"
             style="fill:url(#linearGradient3279);fill-opacity:1;stroke:#664a2c;stroke-width:4.02714491px;stroke-linecap:butt;stroke-linejoin:round;stroke-opacity:1" />
          <path
             sodipodi:nodetypes="cssccccssc"
             id="path2840-7"
             d="M 15.325902,39.030458 C 15.11273,42.132457 29.39882,47.523616 43.995372,43.922264 C 45.460044,43.560891 45.170449,36.541861 43.542291,33.619218 C 41.057974,29.159719 33.557534,25.70516 33.557534,25.70516 C 31.231668,31.793203 29.850141,37.535242 28.587078,44.366735 L 20.142726,41.920408 C 20.262177,36.844895 21.178434,32.526154 21.057682,27.45064 C 21.057682,27.45064 18.411183,28.443672 17.141203,30.207978 C 15.27502,32.800552 15.577316,35.371963 15.325902,39.030458 L 15.325902,39.030458 z"
             style="fill:url(#radialGradient3281);fill-opacity:1;stroke:#435c71;stroke-width:4.02714491px;stroke-linecap:butt;stroke-linejoin:miter;stroke-opacity:1" />
          <path
             sodipodi:nodetypes="cc"
             id="path3623-0"
             d="M 21.979484,26.102967 C 25.296833,26.130027 28.930989,23.535081 31.979994,19.536976"
             style="fill:none;stroke:#664a2c;stroke-width:4.02714539;stroke-linecap:round;stroke-linejoin:miter;stroke-miterlimit:4;stroke-dasharray:none;stroke-opacity:1" />
          <path
             sodipodi:nodetypes="cc"
             id="path3623-5-2"
             d="M 22.455032,21.676592 C 25.348889,21.703652 28.695351,18.704645 30.738283,14.605525"
             style="fill:none;stroke:url(#linearGradient3283);stroke-width:4.02714491px;stroke-linecap:round;stroke-linejoin:miter;stroke-opacity:1" />
        </g>
        <path
           sodipodi:nodetypes="csssccc"
           id="path3621-6-2"
           d="M 23.394521,10.994903 C 23.908773,5.3687802 11.300192,6.2455112 8.6967203,10.021088 C 8.2536405,10.663646 3.2725503,19.079919 8.8236633,24.551315 C 10.307839,26.014177 15.561223,25.84668 13.542016,24.793715 C 13.196275,24.613421 12.14711,19.798753 9.2174953,18.007152 C 9.1636253,14.080378 10.107656,14.756217 11.667129,16.476132 C 12.116652,9.7575017 19.35252,12.374141 23.394521,10.994903 z"
           style="fill:url(#radialGradient3285);fill-opacity:1;stroke:#584116;stroke-width:3.05183721px;stroke-linecap:butt;stroke-linejoin:round;stroke-opacity:1" />
      </g>
      <g
         transform="matrix(0.2483149,0,0,0.2483149,4.339419,3.076335)"
         id="g3756-2-4">
        <path
           style="fill:#ffffff;stroke:none"
           d="M 21.070346,30.54764 L 30.868826,30.345609 L 26.327596,43.092073 L 20.868316,41.457287 L 21.070346,30.54764 L 21.070346,30.54764 z"
           id="path3619-1-9"
           sodipodi:nodetypes="cccccc" />
        <path
           style="fill:url(#linearGradient3287);fill-opacity:1;stroke:#664a2c;stroke-width:4.02714491px;stroke-linecap:butt;stroke-linejoin:round;stroke-opacity:1"
           d="M 20.350671,8.1264833 C 15.082774,8.1264833 18.841544,26.336406 22.162904,26.188983 L 20.659387,27.934457 L 21.051408,30.782733 C 21.628441,30.877643 23.687523,30.938983 24.288438,30.938983 C 26.718352,30.938983 28.997611,30.132224 30.882188,28.751483 L 31.663438,24.688983 L 31.475938,20.157733 L 34.007188,17.407733 C 34.007188,17.407733 34.88134,14.498352 34.007188,13.563983 C 33.661362,13.194334 32.475938,13.470233 32.475938,13.470233 L 30.975938,14.876483 C 30.975938,14.876483 31.271911,12.134926 30.882188,10.845233 C 30.571421,9.8168273 29.123778,8.4668463 28.05227,8.4295283 L 19.350938,8.1264833 L 20.350671,8.1264833 z"
           id="path2842-9-1"
           sodipodi:nodetypes="ccccsccccsccsscc" />
        <path
           style="fill:url(#radialGradient3289);fill-opacity:1;stroke:#5b7143;stroke-width:4.02714491px;stroke-linecap:butt;stroke-linejoin:miter;stroke-opacity:1"
           d="M 15.325902,39.030458 C 15.11273,42.132457 29.39882,47.523616 43.995372,43.922264 C 45.460044,43.560891 45.170449,36.541861 43.542291,33.619218 C 41.057974,29.159719 31.660637,24.880422 31.660637,24.880422 C 30.310857,32.580401 30.370237,36.386659 29.654961,43.446697 L 20.880714,41.963783 C 21.000165,36.88827 21.161333,32.569528 21.040581,27.494014 C 21.040581,27.494014 18.411183,28.443672 17.141203,30.207978 C 15.27502,32.800552 15.577316,35.371963 15.325902,39.030458 L 15.325902,39.030458 z"
           id="path2840-7-7"
           sodipodi:nodetypes="cssccccssc" />
        <path
           style="fill:none;stroke:#664a2c;stroke-width:4.02714491px;stroke-linecap:round;stroke-linejoin:miter;stroke-opacity:1"
           d="M 21.979484,26.102967 C 25.296833,26.130027 28.930989,23.535081 31.979994,19.536976"
           id="path3623-0-7"
           sodipodi:nodetypes="cc" />
        <path
           style="fill:none;stroke:url(#linearGradient3291);stroke-width:4.02714491px;stroke-linecap:round;stroke-linejoin:miter;stroke-opacity:1"
           d="M 22.455032,21.676592 C 25.348889,21.703652 28.695351,18.704645 30.738283,14.605525"
           id="path3623-5-2-8"
           sodipodi:nodetypes="cc" />
        <path
           style="fill:url(#radialGradient3293);fill-opacity:1;stroke:#282828;stroke-width:4.02714491px;stroke-linecap:butt;stroke-linejoin:round;stroke-opacity:1"
           d="M 18.64598,8.1222533 C 16.683819,7.6057653 16.72669,7.1121003 16.72669,7.1121003 C 18.976675,5.1742787 26.595554,-1.931065 35.010452,6.8090553 C 35.010452,6.8090553 36.06748,9.1792533 36.121619,10.445604 C 36.183399,11.890602 34.303345,17.213627 34.303345,17.213627 C 34.374425,12.031933 33.128707,12.923757 31.070857,15.193322 C 30.315138,7.1222793 30.141626,8.7855946 18.64598,8.1222533 z"
           id="path3621-6-0"
           sodipodi:nodetypes="cccsccc" />
      </g>
    </g>
  </g>
</svg>
